<svg width="20" height="21" viewBox="0 0 20 21" fill="none" xmlns="http://www.w3.org/2000/svg">
<path d="M7.50289 2.85732L6.80653 3.13586L7.50289 2.85732ZM8.55715 5.49298L9.25351 5.21443L8.55715 5.49298ZM8.23664 7.51613L8.81281 7.99627V7.99627L8.23664 7.51613ZM7.66925 8.197L8.24542 8.67714H8.24542L7.66925 8.197ZM7.79148 10.8916L7.26115 11.4219L7.79148 10.8916ZM9.70852 12.8086L10.2389 12.2783L9.70852 12.8086ZM12.4031 12.9308L11.923 12.3547L12.4031 12.9308ZM13.084 12.3635L13.5641 12.9396L13.5641 12.9396L13.084 12.3635ZM15.1071 12.0429L14.8286 12.7393H14.8286L15.1071 12.0429ZM17.7428 13.0972L18.0213 12.4009L17.7428 13.0972ZM2.89474 2.3501H5.64593V0.850098H2.89474V2.3501ZM6.80653 3.13586L7.86079 5.77152L9.25351 5.21443L8.19924 2.57877L6.80653 3.13586ZM7.66048 7.03599L7.09308 7.71686L8.24542 8.67714L8.81281 7.99627L7.66048 7.03599ZM7.26115 11.4219L9.17819 13.3389L10.2389 12.2783L8.32181 10.3612L7.26115 11.4219ZM12.8832 13.507L13.5641 12.9396L12.6038 11.7873L11.923 12.3547L12.8832 13.507ZM14.8286 12.7393L17.4642 13.7936L18.0213 12.4009L15.3857 11.3466L14.8286 12.7393ZM18.25 14.9542V17.7054H19.75V14.9542H18.25ZM17.1053 18.8501C8.62479 18.8501 1.75 11.9753 1.75 3.49483H0.25C0.25 12.8037 7.79636 20.3501 17.1053 20.3501V18.8501ZM18.25 17.7054C18.25 18.3376 17.7375 18.8501 17.1053 18.8501V20.3501C18.5659 20.3501 19.75 19.166 19.75 17.7054H18.25ZM17.4642 13.7936C17.9388 13.9834 18.25 14.443 18.25 14.9542H19.75C19.75 13.8297 19.0654 12.8185 18.0213 12.4009L17.4642 13.7936ZM13.5641 12.9396C13.9168 12.6457 14.4023 12.5688 14.8286 12.7393L15.3857 11.3466C14.4478 10.9715 13.3798 11.1406 12.6038 11.7873L13.5641 12.9396ZM9.17819 13.3389C10.1839 14.3447 11.7906 14.4176 12.8832 13.507L11.923 12.3547C11.4263 12.7686 10.696 12.7354 10.2389 12.2783L9.17819 13.3389ZM7.09308 7.71686C6.18254 8.80951 6.25543 10.4162 7.26115 11.4219L8.32181 10.3612C7.86466 9.9041 7.83154 9.17379 8.24542 8.67714L7.09308 7.71686ZM7.86079 5.77152C8.03131 6.19781 7.9544 6.68328 7.66048 7.03599L8.81281 7.99627C9.45945 7.22029 9.62865 6.15228 9.25351 5.21443L7.86079 5.77152ZM5.64593 2.3501C6.15706 2.3501 6.6167 2.66129 6.80653 3.13586L8.19924 2.57877C7.78162 1.53471 6.77042 0.850098 5.64593 0.850098V2.3501ZM2.89474 0.850098C1.43409 0.850098 0.25 2.03419 0.25 3.49483H1.75C1.75 2.86261 2.26252 2.3501 2.89474 2.3501V0.850098Z" fill="#525B73"/>
</svg>
