<svg width="80" height="80" viewBox="0 0 80 80" fill="none" xmlns="http://www.w3.org/2000/svg">
<rect width="80" height="80" rx="40" transform="matrix(-1 0 0 1 80 0)" fill="#40A9FF"/>
<path d="M32.9004 45.1907C34.0585 44.0326 34.0585 42.1478 32.9004 40.9897C32.3392 40.4288 31.5933 40.1196 30.7999 40.1196C30.3412 40.1196 29.8987 40.2234 29.4986 40.419C28.0878 38.4006 27.3447 36.0385 27.3447 33.5541C27.3447 27.1957 32.3117 21.9284 38.6523 21.5622C39.0836 21.5372 39.4125 21.1676 39.3878 20.7367C39.3628 20.3055 38.9932 19.9774 38.5623 20.0012C31.3953 20.4153 25.7812 26.3684 25.7812 33.5541C25.7812 36.4209 26.6574 39.144 28.3185 41.4569C27.5595 42.6092 27.6865 44.1779 28.6993 45.1907C29.2606 45.7516 30.0064 46.0608 30.7999 46.0608C31.5933 46.0608 32.3392 45.7516 32.9004 45.1907ZM29.8047 42.0953C30.079 41.821 30.4395 41.6837 30.7999 41.6837C31.16 41.6837 31.5204 41.821 31.7947 42.0953C32.3434 42.6437 32.3434 43.5367 31.7947 44.0851C31.246 44.6338 30.3534 44.6338 29.8047 44.0851C29.2563 43.5367 29.2563 42.644 29.8047 42.0953Z" fill="white"/>
<path d="M51.4095 47.0835C50.9154 47.0835 50.4509 47.2123 50.0478 47.4381C49.6904 46.305 48.6297 45.481 47.38 45.481C46.5892 45.481 45.8742 45.8109 45.3652 46.3401C45.2239 46.1936 45.0667 46.0627 44.8967 45.9495C46.6985 45.1429 48.3199 43.9448 49.6318 42.4271C51.7601 39.9644 52.9323 36.8131 52.9323 33.5542C52.9323 30.6889 52.0562 27.9642 50.3954 25.651C51.1544 24.4987 51.0274 22.9304 50.0142 21.9172C48.8561 20.759 46.9716 20.759 45.8132 21.9172C44.655 23.0753 44.655 24.9601 45.8132 26.1182C46.3924 26.6975 47.1529 26.9871 47.9137 26.9871C48.3596 26.9871 48.8048 26.8867 49.2141 26.6877C50.6255 28.7067 51.3689 31.0706 51.3689 33.5542C51.3689 39.2091 47.5301 43.989 42.1172 45.2482V41.0404C45.2172 39.896 47.3351 36.8995 47.3351 33.5542C47.3351 29.155 43.756 25.5759 39.3566 25.5759C34.9575 25.5759 31.3784 29.1547 31.3784 33.5542C31.3784 35.2903 31.9268 36.9413 32.9638 38.328C33.8683 39.5374 35.1198 40.4768 36.5239 41.0126V52.5114L35.5419 50.9003C34.7167 49.5457 32.994 49.1062 31.6204 49.8991C30.3139 50.6535 29.8043 52.3087 30.4638 53.6741L33.3797 59.5649C33.5161 59.8405 33.7932 60.0001 34.081 60.0001C34.1976 60.0001 34.3157 59.9741 34.4271 59.9189C34.814 59.7272 34.9724 59.2582 34.7811 58.8715L31.8682 52.9874C31.5664 52.3621 31.8007 51.6004 32.4022 51.2531C33.0239 50.8942 33.8335 51.1008 34.207 51.7139L36.6381 55.7029C36.8206 56.002 37.1798 56.1433 37.517 56.0487C37.8542 55.9541 38.0874 55.6464 38.0874 55.2958V37.36C38.0874 36.6801 38.6406 36.1271 39.3206 36.1271C40.0005 36.1271 40.5538 36.6801 40.5538 37.36V40.452C40.5535 40.4575 40.5538 40.463 40.5538 40.4688V52.2065C40.5538 52.6383 40.9035 52.9881 41.3353 52.9881C41.7672 52.9881 42.1172 52.6383 42.1172 52.2065V48.2777C42.1172 47.5977 42.6702 47.0444 43.3501 47.0444C44.03 47.0444 44.5833 47.5977 44.5833 48.2777V52.4909C44.5833 52.9227 44.9334 53.2728 45.3649 53.2728C45.7967 53.2728 46.1467 52.9227 46.1467 52.4909V48.2777C46.1467 47.5977 46.7 47.0444 47.38 47.0444C48.0599 47.0444 48.6129 47.5977 48.6129 48.2777V52.5437C48.6129 52.9755 48.9629 53.3256 49.3947 53.3256C49.8265 53.3256 50.1763 52.9755 50.1763 52.5437V49.8801C50.1763 49.2002 50.7296 48.6469 51.4095 48.6469C52.0894 48.6469 52.6427 49.2002 52.6427 49.8801V59.2179C52.6427 59.6497 52.9924 59.9998 53.4243 59.9998C53.8561 59.9998 54.2061 59.6497 54.2061 59.2179V49.8801C54.2061 48.3381 52.9515 47.0835 51.4095 47.0835ZM46.9188 25.0129C46.3701 24.4642 46.3701 23.5715 46.9188 23.0228C47.1932 22.7485 47.5533 22.6115 47.9137 22.6115C48.2741 22.6115 48.6345 22.7485 48.9089 23.0228C49.4573 23.5715 49.4573 24.4642 48.9089 25.0129C48.3602 25.5613 47.4672 25.5613 46.9188 25.0129ZM32.9418 33.5542C32.9418 30.0169 35.8196 27.1391 39.3569 27.1391C42.8939 27.1391 45.7717 30.0169 45.7717 33.5542C45.7717 36.045 44.312 38.2957 42.1172 39.3458V37.36C42.1172 36.9212 42.0153 36.5055 41.834 36.1353C42.5274 35.467 42.9372 34.5353 42.9372 33.5542C42.9372 31.5797 41.3311 29.9735 39.3569 29.9735C37.3824 29.9735 35.7763 31.5797 35.7763 33.5542C35.7763 34.5066 36.1641 35.4218 36.8309 36.0889C36.6353 36.4704 36.5239 36.9025 36.5239 37.36V39.3128C34.3471 38.249 32.9418 36.0429 32.9418 33.5542ZM37.9021 34.9512C37.5417 34.5783 37.3397 34.0842 37.3397 33.5542C37.3397 32.4418 38.2445 31.5369 39.3566 31.5369C40.4689 31.5369 41.3738 32.4418 41.3738 33.5542C41.3738 34.0919 41.1553 34.604 40.7836 34.9781C40.3576 34.7153 39.8565 34.5637 39.3206 34.5637C38.803 34.5637 38.3184 34.7053 37.9021 34.9512Z" fill="white"/>
</svg>
