<svg width="18" height="10" viewBox="0 0 18 10" fill="none" xmlns="http://www.w3.org/2000/svg">
<path d="M17.1308 9.14809L9.43393 0.223096C9.21362 -0.032373 8.7894 -0.032373 8.56674 0.223096L0.869867 9.14809C0.58393 9.48091 0.841742 9.96841 1.30346 9.96841H16.6972C17.1589 9.96841 17.4167 9.48091 17.1308 9.14809Z" fill="#FF7C59"/>
</svg>
