<svg width="49" height="48" viewBox="0 0 49 48" fill="none" xmlns="http://www.w3.org/2000/svg">
<path d="M26.3359 10C26.3359 8.89543 25.4405 8 24.3359 8C23.2314 8 22.3359 8.89543 22.3359 10V22H10.3359C9.23137 22 8.33594 22.8954 8.33594 24C8.33594 25.1046 9.23137 26 10.3359 26H22.3359V38C22.3359 39.1046 23.2314 40 24.3359 40C25.4405 40 26.3359 39.1046 26.3359 38V26H38.3359C39.4405 26 40.3359 25.1046 40.3359 24C40.3359 22.8954 39.4405 22 38.3359 22H26.3359V10Z" fill="#AAAEB3"/>
</svg>
