<svg width="28" height="28" viewBox="0 0 28 28" fill="none" xmlns="http://www.w3.org/2000/svg">
<g clip-path="url(#clip0_5834_73485)">
<path d="M28 11.6667V9.22725C28.0001 8.59846 27.8308 7.98126 27.51 7.44051C27.1891 6.89976 26.7285 6.45544 26.1765 6.15425L15.6765 0.427079C15.1625 0.145748 14.586 -0.00170898 14 -0.00170898C13.414 -0.00170898 12.8375 0.145748 12.3235 0.427079L1.8235 6.15425C1.27154 6.45544 0.810915 6.89976 0.490038 7.44051C0.169161 7.98126 -0.000116322 8.59846 5.9971e-08 9.22725V11.6667H3.5V22.1668H1.16667V25.6668H5.9971e-08V28.0001H28V25.6668H26.8333V22.1668H24.5V11.6667H28ZM16.3333 11.6667V22.1668H11.6667V11.6667H16.3333ZM5.83333 11.6667H9.33333V22.1668H5.83333V11.6667ZM22.1667 22.1668H18.6667V11.6667H22.1667V22.1668Z" fill="#0979FD"/>
</g>
<defs>
<clipPath id="clip0_5834_73485">
<rect width="28" height="28" fill="white"/>
</clipPath>
</defs>
</svg>
