<svg width="20" height="20" viewBox="0 0 20 20" fill="none" xmlns="http://www.w3.org/2000/svg">
<g clip-path="url(#clip0_5714_74011)">
<path d="M10.9377 10L6.97767 13.96L8.10887 15.0912L13.2001 10L8.10887 4.90881L6.97767 6.04001L10.9377 10Z" fill="white"/>
</g>
<defs>
<clipPath id="clip0_5714_74011">
<rect width="19.2" height="19.2" fill="white" transform="matrix(-1 0 0 1 19.6001 0.400024)"/>
</clipPath>
</defs>
</svg>
