<svg width="30" height="30" viewBox="0 0 30 30" fill="none" xmlns="http://www.w3.org/2000/svg">
<path d="M4.61379 7.865C2.25504 10.425 2.49254 13.7125 2.50004 13.75V23.75C2.50004 24.0815 2.63173 24.3995 2.86615 24.6339C3.10057 24.8683 3.41852 25 3.75004 25H11.25C12.6288 25 13.75 23.8788 13.75 22.5V13.75C13.75 13.4185 13.6183 13.1005 13.3839 12.8661C13.1495 12.6317 12.8316 12.5 12.5 12.5H8.65254C8.67895 11.882 8.86359 11.2812 9.18879 10.755C9.82379 9.75375 11.02 9.07 12.7463 8.725L13.75 8.525V5H12.5C9.02129 5 6.36754 5.96375 4.61379 7.865ZM18.3725 7.865C16.0125 10.425 16.2513 13.7125 16.2588 13.75V23.75C16.2588 24.0815 16.3905 24.3995 16.6249 24.6339C16.8593 24.8683 17.1773 25 17.5088 25H25.0088C26.3875 25 27.5088 23.8788 27.5088 22.5V13.75C27.5088 13.4185 27.3771 13.1005 27.1427 12.8661C26.9083 12.6317 26.5903 12.5 26.2588 12.5H22.4113C22.4377 11.882 22.6223 11.2812 22.9475 10.755C23.5825 9.75375 24.7788 9.07 26.505 8.725L27.5088 8.525V5H26.2588C22.78 5 20.1263 5.96375 18.3725 7.865Z" fill="#0979FD"/>
</svg>
