<svg width="68" height="68" viewBox="0 0 68 68" fill="none" xmlns="http://www.w3.org/2000/svg">
<path d="M35.9016 48.953C44.6903 48.953 51.8149 41.8237 51.8149 33.0292C51.8149 24.2348 44.6903 17.1055 35.9016 17.1055C27.1129 17.1055 19.9883 24.2348 19.9883 33.0292C19.9883 41.8237 27.1129 48.953 35.9016 48.953Z" stroke="url(#paint0_linear_6019_74272)" stroke-width="1.66133" stroke-miterlimit="10"/>
<path d="M32.6357 48.6216L30.7344 57.3073" stroke="url(#paint1_linear_6019_74272)" stroke-width="1.66133" stroke-miterlimit="10"/>
<path d="M57.0647 15.823L47.8887 22.5647" stroke="url(#paint2_linear_6019_74272)" stroke-width="1.66133" stroke-miterlimit="10"/>
<path d="M45.8223 45.478L53.9236 53.2538" stroke="url(#paint3_linear_6019_74272)" stroke-width="1.66133" stroke-miterlimit="10"/>
<path d="M10.7285 29.5962L20.1112 30.8784" stroke="url(#paint4_linear_6019_74272)" stroke-width="1.66133" stroke-miterlimit="10"/>
<path d="M34.8682 17.146L33.2148 8.7085" stroke="url(#paint5_linear_6019_74272)" stroke-width="1.66133" stroke-miterlimit="10"/>
<path d="M35.4872 5.85484C35.4872 7.42654 34.2059 8.70871 32.6352 8.70871C31.0645 8.70871 29.7832 7.42654 29.7832 5.85484C29.7832 4.28315 31.0645 3.00097 32.6352 3.00097C34.2059 2.95961 35.4872 4.24179 35.4872 5.85484Z" stroke="url(#paint6_linear_6019_74272)" stroke-width="1.66133" stroke-miterlimit="10"/>
<path d="M60.4126 17.4767C62.6954 17.4767 64.546 15.6249 64.546 13.3406C64.546 11.0564 62.6954 9.20459 60.4126 9.20459C58.1299 9.20459 56.2793 11.0564 56.2793 13.3406C56.2793 15.6249 58.1299 17.4767 60.4126 17.4767Z" stroke="url(#paint7_linear_6019_74272)" stroke-width="1.66133" stroke-miterlimit="10"/>
<path d="M51.8145 33.0291H59.2958" stroke="url(#paint8_linear_6019_74272)" stroke-width="1.66133" stroke-miterlimit="10"/>
<path d="M6.88533 32.9459C9.03114 32.9459 10.7707 31.2053 10.7707 29.0581C10.7707 26.9108 9.03114 25.1702 6.88533 25.1702C4.73952 25.1702 3 26.9108 3 29.0581C3 31.2053 4.73952 32.9459 6.88533 32.9459Z" stroke="url(#paint9_linear_6019_74272)" stroke-width="1.66133" stroke-miterlimit="10"/>
<path d="M33.7979 61.7486C34.1428 59.6293 32.7054 57.6316 30.5875 57.2865C28.4696 56.9415 26.4731 58.3798 26.1283 60.4991C25.7834 62.6184 27.2208 64.6162 29.3387 64.9612C31.4566 65.3063 33.4531 63.868 33.7979 61.7486Z" stroke="url(#paint10_linear_6019_74272)" stroke-width="1.66133" stroke-miterlimit="10"/>
<path d="M62.1489 35.8825C63.724 35.8825 65.0009 34.6048 65.0009 33.0287C65.0009 31.4525 63.724 30.1748 62.1489 30.1748C60.5738 30.1748 59.2969 31.4525 59.2969 33.0287C59.2969 34.6048 60.5738 35.8825 62.1489 35.8825Z" stroke="url(#paint11_linear_6019_74272)" stroke-width="1.66133" stroke-miterlimit="10"/>
<path d="M61.3098 57.28C61.8632 54.9229 60.4022 52.5631 58.0466 52.0093C55.691 51.4556 53.3327 52.9175 52.7794 55.2747C52.226 57.6319 53.687 59.9916 56.0426 60.5454C58.3982 61.0992 60.7564 59.6372 61.3098 57.28Z" stroke="url(#paint12_linear_6019_74272)" stroke-width="1.66133" stroke-miterlimit="10"/>
<path d="M51.815 33.3181C53.923 35.138 54.915 36.9165 54.4603 38.116C53.3443 40.9285 44.0856 39.9358 33.7523 35.8825C23.419 31.8292 15.9376 26.2455 17.0536 23.433C17.6323 21.944 20.195 21.4477 24.411 22.0267" stroke="url(#paint13_linear_6019_74272)" stroke-width="1.66133" stroke-miterlimit="10"/>
<path d="M49.0048 23.9301C51.4021 23.7647 52.9314 24.0542 53.2621 24.8814C54.0888 27.0322 46.3594 31.9954 35.9848 36.0074C25.6101 40.0193 16.5581 41.467 15.7315 39.3162C15.3181 38.2408 17.0128 36.5037 20.0301 34.5184" stroke="url(#paint14_linear_6019_74272)" stroke-width="1.66133" stroke-miterlimit="10"/>
<path d="M45.6966 45.5611C45.7793 48.415 45.2006 50.4003 43.8366 51.0207C40.6127 52.5096 34.2473 45.4784 29.6593 35.3864C25.0713 25.2945 23.9553 15.9057 27.1793 14.4167C28.6673 13.7136 30.858 14.8716 33.214 17.3119" stroke="url(#paint15_linear_6019_74272)" stroke-width="1.66133" stroke-miterlimit="10"/>
<path d="M27.2206 46.3878C23.5419 49.4071 21.1033 50.5238 20.1113 49.6553C18.2926 48.0836 23.3353 39.2324 31.3953 29.9677C39.4553 20.703 47.4739 14.4575 49.2926 16.0292C50.2019 16.8151 49.6646 18.8831 47.7219 22.316" stroke="url(#paint16_linear_6019_74272)" stroke-width="1.66133" stroke-miterlimit="10"/>
<path d="M41.0684 17.9733L42.8457 13.2996" stroke="url(#paint17_linear_6019_74272)" stroke-width="1.66133" stroke-miterlimit="10"/>
<path d="M43.5885 13.4234C44.7527 13.4234 45.6965 12.479 45.6965 11.314C45.6965 10.149 44.7527 9.20459 43.5885 9.20459C42.4242 9.20459 41.4805 10.149 41.4805 11.314C41.4805 12.479 42.4242 13.4234 43.5885 13.4234Z" stroke="url(#paint18_linear_6019_74272)" stroke-width="1.66133" stroke-miterlimit="10"/>
<defs>
<linearGradient id="paint0_linear_6019_74272" x1="52.13" y1="31.591" x2="19.6991" y2="31.6178" gradientUnits="userSpaceOnUse">
<stop stop-color="#3E64FF"/>
<stop offset="1" stop-color="#1993FF"/>
</linearGradient>
<linearGradient id="paint1_linear_6019_74272" x1="32.6545" y1="52.5722" x2="30.7171" y2="52.5725" gradientUnits="userSpaceOnUse">
<stop stop-color="#3E64FF"/>
<stop offset="1" stop-color="#1993FF"/>
</linearGradient>
<linearGradient id="paint2_linear_6019_74272" x1="57.1555" y1="18.8894" x2="47.8053" y2="18.8999" gradientUnits="userSpaceOnUse">
<stop stop-color="#3E64FF"/>
<stop offset="1" stop-color="#1993FF"/>
</linearGradient>
<linearGradient id="paint3_linear_6019_74272" x1="54.0038" y1="49.0147" x2="45.7487" y2="49.0219" gradientUnits="userSpaceOnUse">
<stop stop-color="#3E64FF"/>
<stop offset="1" stop-color="#1993FF"/>
</linearGradient>
<linearGradient id="paint4_linear_6019_74272" x1="20.2041" y1="30.1794" x2="10.6436" y2="30.2373" gradientUnits="userSpaceOnUse">
<stop stop-color="#3E64FF"/>
<stop offset="1" stop-color="#1993FF"/>
</linearGradient>
<linearGradient id="paint5_linear_6019_74272" x1="34.8845" y1="12.5462" x2="33.1998" y2="12.5465" gradientUnits="userSpaceOnUse">
<stop stop-color="#3E64FF"/>
<stop offset="1" stop-color="#1993FF"/>
</linearGradient>
<linearGradient id="paint6_linear_6019_74272" x1="35.5437" y1="5.59654" x2="29.7314" y2="5.60135" gradientUnits="userSpaceOnUse">
<stop stop-color="#3E64FF"/>
<stop offset="1" stop-color="#1993FF"/>
</linearGradient>
<linearGradient id="paint7_linear_6019_74272" x1="64.6278" y1="12.9671" x2="56.2042" y2="12.974" gradientUnits="userSpaceOnUse">
<stop stop-color="#3E64FF"/>
<stop offset="1" stop-color="#1993FF"/>
</linearGradient>
<linearGradient id="paint8_linear_6019_74272" x1="59.3699" y1="33.4839" x2="51.7468" y2="33.5311" gradientUnits="userSpaceOnUse">
<stop stop-color="#3E64FF"/>
<stop offset="1" stop-color="#1993FF"/>
</linearGradient>
<linearGradient id="paint9_linear_6019_74272" x1="10.8476" y1="28.7069" x2="2.9294" y2="28.7134" gradientUnits="userSpaceOnUse">
<stop stop-color="#3E64FF"/>
<stop offset="1" stop-color="#1993FF"/>
</linearGradient>
<linearGradient id="paint10_linear_6019_74272" x1="30.2535" y1="57.1541" x2="28.9859" y2="64.9753" gradientUnits="userSpaceOnUse">
<stop stop-color="#3E64FF"/>
<stop offset="1" stop-color="#1993FF"/>
</linearGradient>
<linearGradient id="paint11_linear_6019_74272" x1="65.0574" y1="32.7709" x2="59.245" y2="32.7757" gradientUnits="userSpaceOnUse">
<stop stop-color="#3E64FF"/>
<stop offset="1" stop-color="#1993FF"/>
</linearGradient>
<linearGradient id="paint12_linear_6019_74272" x1="57.6812" y1="51.8343" x2="55.6438" y2="60.5335" gradientUnits="userSpaceOnUse">
<stop stop-color="#3E64FF"/>
<stop offset="1" stop-color="#1993FF"/>
</linearGradient>
<linearGradient id="paint13_linear_6019_74272" x1="54.9413" y1="29.9436" x2="16.6016" y2="30.0103" gradientUnits="userSpaceOnUse">
<stop stop-color="#3E64FF"/>
<stop offset="1" stop-color="#1993FF"/>
</linearGradient>
<linearGradient id="paint14_linear_6019_74272" x1="53.6955" y1="31.3559" x2="15.3279" y2="31.4288" gradientUnits="userSpaceOnUse">
<stop stop-color="#3E64FF"/>
<stop offset="1" stop-color="#1993FF"/>
</linearGradient>
<linearGradient id="paint15_linear_6019_74272" x1="45.906" y1="31.0452" x2="25.1509" y2="31.0547" gradientUnits="userSpaceOnUse">
<stop stop-color="#3E64FF"/>
<stop offset="1" stop-color="#1993FF"/>
</linearGradient>
<linearGradient id="paint16_linear_6019_74272" x1="50.0194" y1="31.3217" x2="19.4678" y2="31.3439" gradientUnits="userSpaceOnUse">
<stop stop-color="#3E64FF"/>
<stop offset="1" stop-color="#1993FF"/>
</linearGradient>
<linearGradient id="paint17_linear_6019_74272" x1="42.8633" y1="15.4254" x2="41.0522" y2="15.4259" gradientUnits="userSpaceOnUse">
<stop stop-color="#3E64FF"/>
<stop offset="1" stop-color="#1993FF"/>
</linearGradient>
<linearGradient id="paint18_linear_6019_74272" x1="45.7382" y1="11.1234" x2="41.4422" y2="11.127" gradientUnits="userSpaceOnUse">
<stop stop-color="#3E64FF"/>
<stop offset="1" stop-color="#1993FF"/>
</linearGradient>
</defs>
</svg>
