<svg width="64" height="64" viewBox="0 0 64 64" fill="none" xmlns="http://www.w3.org/2000/svg">
<g clip-path="url(#clip0_5871_1256)">
<path d="M30.9013 0.0468413C21.6291 0.632216 14.4629 8.43747 14.4629 17.7281C14.4629 20.4037 14.4629 38.1502 14.4629 40.4571C14.4629 41.2306 15.0899 41.8576 15.8634 41.8576H22.3691H26.8215H37.2491H48.6152C49.1634 41.8576 49.6077 41.4132 49.6077 40.8651C49.6077 32.8177 49.6077 25.9378 49.6077 17.5835C49.6076 7.51859 41.102 -0.597159 30.9013 0.0468413Z" fill="#647892"/>
<path d="M23.2169 40.4571V28.8601V27.9541C23.2169 26.8751 23.2169 18.7997 23.2169 17.7281C23.2169 9.55481 28.7635 2.53206 36.4105 0.562308C25.2266 -2.31419 14.4629 6.21431 14.4629 17.7281C14.4629 20.4037 14.4629 38.1502 14.4629 40.4571C14.4629 41.2306 15.0899 41.8576 15.8634 41.8576H22.3691H24.6174C23.8439 41.8576 23.2169 41.2306 23.2169 40.4571Z" fill="#4D6682"/>
<path d="M54.5161 60.7496C53.7739 57.0222 52.894 52.6027 52.6818 51.5367C52.1303 48.7742 50.1006 47.651 48.9824 47.2339C48.9689 47.2299 48.2168 47.008 48.2303 47.012H48.2304C48.2083 47.0065 44.628 46.1194 41.5309 45.3535L35.2258 52.7591C33.3934 54.9115 30.6599 54.907 28.8314 52.7486L22.5493 45.3335C21.6575 45.5556 19.5198 46.0825 15.7697 47.012H15.7698C15.9902 46.9469 12.1093 47.5751 11.3183 51.5367C11.106 52.6026 10.226 57.0222 9.4839 60.7496C9.15978 62.3805 10.3554 63.9029 11.9888 63.9954C11.9944 63.9984 11.9975 64 11.9975 64H12.1565C13.9218 64 50.3143 64 52.0024 64C52.0024 64 52.0055 63.9984 52.0111 63.9954C53.6453 63.9029 54.8401 62.38 54.5161 60.7496Z" fill="#3997EE"/>
<path d="M26.8219 39.7057H26.817V39.7056C26.8244 39.7091 26.7773 39.7174 26.7588 39.7204C26.785 39.7206 26.8055 39.7207 26.822 39.7208L26.8219 39.7057Z" fill="#3997EE"/>
<path d="M12.9597 60.7496C12.9597 60.7496 14.5819 51.5728 14.7941 50.5068C15.2455 48.2457 16.687 47.0833 17.8085 46.5068C16.8525 46.7436 16.1065 46.9285 15.7696 47.012H15.7697C15.9901 46.9468 12.1092 47.5751 11.3182 51.5367C11.106 52.6026 10.226 57.0222 9.48385 60.7496C9.15923 62.3867 10.3609 63.9032 11.9887 63.9953C11.9944 63.9983 11.9975 64 11.9975 64H12.1565H15.4734C15.4734 64 15.4702 63.9983 15.4646 63.9953C13.8366 63.9032 12.6351 62.3863 12.9597 60.7496Z" fill="#1E88D8"/>
<path d="M37.9411 44.4672C37.4591 44.3481 37.1205 43.9156 37.1205 43.4191C37.1205 43.4191 37.1205 41.2194 37.1205 39.7056H36.1835C33.537 40.6758 30.5563 40.7334 27.7593 39.7056H26.8215V43.5039C26.8215 43.9509 26.5174 44.3406 26.0838 44.4489L22.3691 45.3786L28.8313 53.0062C30.6598 55.1646 33.3933 55.1691 35.2256 53.0167L41.7111 45.3992L37.9411 44.4672Z" fill="#EDB87E"/>
<path d="M34.467 53.7476L31.9734 50.9482C30.8939 49.7363 30.2974 48.1701 30.2974 46.5471V40.3381C29.4441 40.2201 28.5935 40.0122 27.7593 39.7056H26.8215V43.5039C26.8215 43.9509 26.5174 44.3404 26.0838 44.4489L22.3691 45.3786L28.8313 53.0062C30.4215 54.8833 32.6959 55.1304 34.467 53.7476Z" fill="#E4A970"/>
<path d="M19.6771 58.5932C19.6771 58.0599 19.2448 57.6277 18.7116 57.6277C18.1783 57.6277 17.7461 58.0599 17.7461 58.5932V64.0001H19.6771V58.5932Z" fill="#1E88D8"/>
<path d="M46.1966 64.0001V58.5932C46.1966 58.0599 45.7644 57.6277 45.2311 57.6277C44.6979 57.6277 44.2656 58.0599 44.2656 58.5932V64.0001H46.1966Z" fill="#1E88D8"/>
<path d="M28.8318 53.0062C30.6603 55.1645 33.3938 55.169 35.2261 53.0167L38.5893 49.0667H25.4941L28.8318 53.0062Z" fill="#FAC149"/>
<path d="M28.8318 53.0062C29.5846 53.8945 30.6079 54.5367 31.7813 54.6183C32.7703 54.6869 33.7006 54.346 34.4675 53.7474C32.3798 51.2839 31.4763 50.7123 30.7983 49.0667H25.4941C26.6663 50.4502 27.6634 51.6272 28.8318 53.0062Z" fill="#F8A748"/>
<path d="M21.4825 24.4484C20.5376 24.3913 19.7412 25.146 19.7412 26.0927V28.3999C19.7412 35.4453 25.5806 41.1839 32.6182 40.8556C39.1373 40.5514 44.3297 35.1703 44.3297 28.5748V20.7125C44.3297 19.9072 43.7316 19.23 42.9331 19.1253C41.8813 18.9873 40.4721 18.4278 39.5745 16.5788C39.3396 16.095 38.674 16.0325 38.3556 16.4659C36.4707 19.0322 31.0141 25.0244 21.4825 24.4484Z" fill="#F4C48B"/>
<path d="M23.217 28.575V24.4821C22.6545 24.4948 22.0763 24.4845 21.4825 24.4486C20.5376 24.3915 19.7412 25.1462 19.7412 26.0929V28.4001C19.7412 35.4455 25.5806 41.1841 32.6182 40.8557C33.0083 40.8375 33.3936 40.8006 33.7733 40.7469C27.8065 39.9026 23.217 34.7757 23.217 28.575Z" fill="#EDB87E"/>
<path d="M31.9998 37.6734H25.0895C20.8198 37.6734 17.0742 34.8584 17.0742 30.5008V28.5221C17.0742 27.9889 17.5065 27.5566 18.0397 27.5566C18.573 27.5566 19.0052 27.9889 19.0052 28.5221V30.5008C19.0052 33.7335 21.8421 35.7424 25.0895 35.7424H31.9998C32.5331 35.7424 32.9653 36.1746 32.9653 36.7079C32.9653 37.2413 32.5331 37.6734 31.9998 37.6734Z" fill="#EFEFEF"/>
<path d="M46.1314 21.324C45.5982 21.324 45.1659 20.8918 45.1659 20.3585V17.7333C45.1659 10.3908 39.2036 4.37417 31.8639 4.50267C24.8183 4.62742 19.0326 10.3853 19.0326 17.5672V20.3585C19.0326 20.8918 18.6003 21.324 18.0671 21.324C17.5338 21.324 17.1016 20.8918 17.1016 20.3585V17.5672C17.1016 9.45629 23.6066 2.71754 31.8298 2.57179C40.2546 2.42804 47.0971 9.30991 47.0971 17.7332V20.3584C47.0969 20.8918 46.6647 21.324 46.1314 21.324Z" fill="#EFEFEF"/>
<path d="M47.7959 21.0344V29.2739C51.4854 27.7683 51.4937 22.5433 47.7959 21.0344Z" fill="#FAC149"/>
<path d="M47.7959 24.7359V29.2738C50.3396 28.2358 51.3259 25.1979 49.9463 22.885C49.4528 23.7124 48.6988 24.3674 47.7959 24.7359Z" fill="#F8A748"/>
<path d="M16.2854 21.0344V29.2739C12.5822 27.7683 12.5739 22.5433 16.2854 21.0344Z" fill="#FAC149"/>
<path d="M14.2243 22.7329C12.7013 25.0572 13.6705 28.2105 16.2858 29.2738V24.4375C15.4353 24.0905 14.7181 23.4903 14.2243 22.7329Z" fill="#F8A748"/>
<path d="M30.8403 38.3816H33.167C34.1058 38.3816 34.9163 37.6603 34.9576 36.7223C35.0015 35.7266 34.2073 34.9058 33.2215 34.9058H30.7858C29.8 34.9058 29.0057 35.7266 29.0496 36.7223C29.091 37.6603 29.9015 38.3816 30.8403 38.3816Z" fill="#3997EE"/>
<path d="M32.0055 36.7223C31.9655 35.8161 32.6205 35.0569 33.4816 34.9274C33.3965 34.9146 33.3102 34.9058 33.2215 34.9058H30.7858C29.8 34.9058 29.0057 35.7266 29.0496 36.7223C29.0908 37.6603 29.9015 38.3816 30.8403 38.3816H33.167C33.274 38.3816 33.3788 38.3711 33.4815 38.3531C32.683 38.2133 32.0421 37.5534 32.0055 36.7223Z" fill="#1E88D8"/>
<path d="M16.2734 29.2733V21.0352C16.2734 20.0963 16.9948 19.2858 17.9328 19.2444C18.9284 19.2005 19.7493 19.9947 19.7493 20.9807V29.3278C19.7493 30.3137 18.9284 31.1079 17.9328 31.064C16.9948 31.0227 16.2734 30.2122 16.2734 29.2733Z" fill="#F8A748"/>
<path d="M17.9328 25.979C16.9948 25.9377 16.2734 25.1271 16.2734 24.1882V29.2732C16.2734 30.2121 16.9948 31.0226 17.9328 31.064C18.9284 31.1079 19.7493 30.3137 19.7493 29.3277V24.2427C19.7493 25.2287 18.9284 26.0229 17.9328 25.979Z" fill="#F38D1A"/>
<path d="M44.3271 29.2733V21.0352C44.3271 20.0963 45.0491 19.2858 45.9879 19.2444C46.9843 19.2005 47.8059 19.9947 47.8059 20.9807V29.3278C47.8059 30.3137 46.9844 31.1078 45.9879 31.064C45.049 31.0227 44.3271 30.2122 44.3271 29.2733Z" fill="#F8A748"/>
<path d="M45.9879 25.979C45.0491 25.9377 44.3271 25.1272 44.3271 24.1882V29.2732C44.3271 30.2121 45.0491 31.0226 45.9879 31.064C46.9843 31.1079 47.8059 30.3137 47.8059 29.3277V24.2427C47.8059 25.2287 46.9843 26.0229 45.9879 25.979Z" fill="#F38D1A"/>
</g>
<defs>
<clipPath id="clip0_5871_1256">
<rect width="64" height="64" fill="white"/>
</clipPath>
</defs>
</svg>
