<svg width="69" height="68" viewBox="0 0 69 68" fill="none" xmlns="http://www.w3.org/2000/svg">
<path d="M42.3266 42.5414C41.3231 41.5376 40.0688 40.6844 38.7141 40.1323C37.4096 39.5802 35.9546 39.2791 34.4494 39.2791C32.9442 39.2791 31.4892 39.5802 30.1847 40.1323C28.8301 40.6844 27.5757 41.5376 26.5723 42.5414" stroke="white" stroke-width="1.76609" stroke-miterlimit="22.9256" stroke-linecap="round" stroke-linejoin="round"/>
<path d="M47.2933 37.5726C45.6376 35.9164 43.6307 34.5613 41.4231 33.6579C39.3158 32.7544 36.9577 32.3027 34.4992 32.3027C32.0407 32.3027 29.6826 32.8046 27.5753 33.6579C25.3677 34.5613 23.3608 35.9164 21.7051 37.5726" stroke="white" stroke-width="1.76609" stroke-miterlimit="22.9256" stroke-linecap="round" stroke-linejoin="round"/>
<path d="M52.2615 32.6044C49.9535 30.2957 47.194 28.3885 44.0833 27.1338C41.1231 25.9292 37.8618 25.2266 34.4501 25.2266C31.0383 25.2266 27.7771 25.879 24.8169 27.1338C21.7563 28.3885 18.9968 30.2957 16.6387 32.6044" stroke="white" stroke-width="1.76609" stroke-miterlimit="22.9256" stroke-linecap="round" stroke-linejoin="round"/>
<path fill-rule="evenodd" clip-rule="evenodd" d="M34.5003 54.4862C35.6041 54.4862 36.6577 54.0345 37.3602 53.2817C38.1128 52.5288 38.5643 51.525 38.5643 50.3707C38.5643 49.2665 38.1128 48.2125 37.3602 47.4597C36.6076 46.7068 35.6041 46.2551 34.4501 46.2551C33.3463 46.2551 32.2927 46.7068 31.5401 47.4597C30.7875 48.2125 30.3359 49.2163 30.3359 50.3707C30.3359 51.4748 30.7875 52.5288 31.5401 53.2817C32.3429 53.9843 33.3965 54.4862 34.5003 54.4862Z" stroke="white" stroke-width="1.76609" stroke-miterlimit="22.9256" stroke-linecap="round" stroke-linejoin="round"/>
<path d="M5.5 62.116H63.5" stroke="white" stroke-width="1.76609" stroke-miterlimit="22.9256" stroke-linecap="round" stroke-linejoin="round"/>
<path fill-rule="evenodd" clip-rule="evenodd" d="M34.3495 5L63.4498 32.002V35.465H57.3287V62.1157H11.6713V35.465H5.5V31.9518L34.3495 5Z" stroke="white" stroke-width="1.76609" stroke-miterlimit="22.9256" stroke-linecap="round" stroke-linejoin="round"/>
</svg>
