<svg width="26" height="27" viewBox="0 0 26 27" fill="none" xmlns="http://www.w3.org/2000/svg">
<path fill-rule="evenodd" clip-rule="evenodd" d="M26 26.5V0.5L0 26.5H26Z" fill="url(#paint0_linear_3368_18353)"/>
<defs>
<linearGradient id="paint0_linear_3368_18353" x1="13" y1="0.5" x2="13" y2="26.5" gradientUnits="userSpaceOnUse">
<stop stop-color="#FF4912"/>
<stop offset="1" stop-color="#FF7900"/>
</linearGradient>
</defs>
</svg>
