<svg width="85" height="85" viewBox="0 0 85 85" fill="none" xmlns="http://www.w3.org/2000/svg">
<path d="M40.5 1.1547C41.7376 0.44017 43.2624 0.44017 44.5 1.1547L77.3061 20.0953C78.5437 20.8098 79.3061 22.1303 79.3061 23.5594V61.4406C79.3061 62.8697 78.5437 64.1902 77.3061 64.9047L44.5 83.8453C43.2624 84.5598 41.7376 84.5598 40.5 83.8453L7.69392 64.9047C6.45632 64.1902 5.69392 62.8697 5.69392 61.4406V23.5594C5.69392 22.1303 6.45632 20.8098 7.69392 20.0953L40.5 1.1547Z" fill="url(#paint0_linear_6093_74670)"/>
<path d="M42.0962 34.8525V36.1657M42.0962 44.4824V42.9504M44.2136 37.0412C44.2136 36.7493 43.7901 36.1657 42.0962 36.1657M42.0962 36.1657C41.3263 36.0928 39.7864 36.3408 39.7864 37.9166C39.7864 39.8864 44.2136 38.5732 44.2136 41.1995C44.2136 42.5127 43.2512 42.9504 42.0962 42.9504M42.0962 36.1657V42.9504M42.0962 42.9504C40.9413 42.9504 39.5939 42.5127 39.5939 41.6372M26.5047 29.8488H22.0117C21.8354 29.8488 21.6925 29.9917 21.6925 30.168L21.6925 49.485C21.6925 49.6613 21.8354 49.8042 22.0117 49.8042H53.4531M26.5047 29.8488H62.1808C62.3571 29.8488 62.5 29.9917 62.5 30.168V49.485C62.5 49.6613 62.3571 49.8042 62.1808 49.8042H53.4531M26.5047 29.8488V26.9704C26.5047 26.8556 26.5654 26.7453 26.6769 26.7178C27.7117 26.4626 30.2436 27.9662 31.5631 28.8766C31.6503 28.9368 31.7612 28.9508 31.8603 28.9133L32.0136 28.8552C32.1651 28.7978 32.2501 28.6352 32.2049 28.4796C31.2353 25.1456 28.2889 23.4305 26.718 22.911C26.5901 22.8686 26.4986 22.7555 26.4895 22.6211L26.3597 20.7013C26.3411 20.4277 26.0091 20.3032 25.8153 20.4972L21.725 24.5899C21.6006 24.7143 21.6003 24.9159 21.7244 25.0406L26.5047 29.8488ZM53.4531 49.8042V54.7377C53.4531 54.914 53.308 55.0572 53.1317 55.0544C48.2717 54.9776 45.4152 53.1663 44.1747 51.8235C43.9714 51.6034 43.5616 51.7055 43.5552 52.0049C43.447 57.122 49.6988 60.1493 53.2168 61.1217C53.357 61.1605 53.4531 61.2866 53.4531 61.4321V65.2986C53.4531 65.5726 53.7754 65.7193 53.982 65.5394L62.2309 58.3553C62.3745 58.2303 62.3774 58.0083 62.2373 57.8795L53.4531 49.8042ZM37.1765 33.9614H26.6154C26.4455 33.9614 26.3057 34.0956 26.2937 34.2651C26.1271 36.6103 25.5414 36.6596 24.8088 36.6884C24.6426 36.6949 24.5147 36.8317 24.5147 36.998V43.2399C24.5147 43.4162 24.6592 43.5586 24.8354 43.5621C26.4295 43.594 26.3173 43.886 26.3155 44.6302C26.3151 44.7987 26.4548 44.9302 26.6234 44.9302H37.1765C37.1765 44.9302 34.3967 44.7013 34.3967 39.4486C34.3967 34.1959 37.1765 33.9614 37.1765 33.9614ZM29.8647 37.4789C30.8272 37.4789 31.4047 38.5732 31.4047 39.4486C31.4047 40.3241 30.7137 41.1995 29.8647 41.1995C28.9023 41.1995 28.1324 40.3241 28.1324 39.4486C28.1324 38.2073 28.9023 37.4789 29.8647 37.4789ZM59.1271 36.6857C58.4361 36.6552 57.8863 36.5451 57.7146 34.3752C57.6963 34.1444 57.5286 33.9614 57.3248 33.9614H46.8235C46.8235 33.9614 49.6033 34.1959 49.6033 39.4486C49.6033 44.7013 46.8235 44.9302 46.8235 44.9302H57.318C57.52 44.9302 57.6863 44.7521 57.6836 44.5225C57.6758 43.8672 57.6505 43.6002 59.1 43.5636C59.3125 43.5582 59.4853 43.3632 59.4853 43.1214V37.1112C59.4853 36.8816 59.3289 36.6946 59.1271 36.6857ZM54.1353 37.4789C53.1728 37.4789 52.5953 38.5732 52.5953 39.4486C52.5953 40.3241 53.2863 41.1995 54.1353 41.1995C55.0977 41.1995 55.8676 40.3241 55.8676 39.4486C55.8676 38.2073 55.0977 37.4789 54.1353 37.4789Z" stroke="white" stroke-width="1.6" stroke-linecap="round"/>
<defs>
<linearGradient id="paint0_linear_6093_74670" x1="104.166" y1="-272.632" x2="-62.3337" y2="-255.636" gradientUnits="userSpaceOnUse">
<stop stop-color="#18D8F6"/>
<stop offset="1" stop-color="#1C45DF"/>
</linearGradient>
</defs>
</svg>
