<svg width="86" height="85" viewBox="0 0 86 85" fill="none" xmlns="http://www.w3.org/2000/svg">
<path d="M41 1.1547C42.2376 0.44017 43.7624 0.44017 45 1.1547L77.8061 20.0953C79.0437 20.8098 79.8061 22.1303 79.8061 23.5594V61.4406C79.8061 62.8697 79.0437 64.1902 77.8061 64.9047L45 83.8453C43.7624 84.5598 42.2376 84.5598 41 83.8453L8.19392 64.9047C6.95632 64.1902 6.19392 62.8697 6.19392 61.4406V23.5594C6.19392 22.1303 6.95632 20.8098 8.19392 20.0953L41 1.1547Z" fill="url(#paint0_linear_5300_73895)"/>
<path d="M35.0002 51.0005H30.0001C28.674 51.0005 27.4022 50.4737 26.4645 49.536C25.5268 48.5983 25 47.3265 25 46.0004V30.0001C25 28.674 25.5268 27.4022 26.4645 26.4645C27.4022 25.5268 28.674 25 30.0001 25H54.0006C55.3267 25 56.5985 25.5268 57.5362 26.4645C58.4739 27.4022 59.0007 28.674 59.0007 30.0001V39.0003" stroke="white" stroke-width="1.8" stroke-linecap="round" stroke-linejoin="round"/>
<path d="M53.001 31H51.001" stroke="white" stroke-width="1.8" stroke-linecap="round" stroke-linejoin="round"/>
<path d="M31 45H33" stroke="white" stroke-width="1.8" stroke-linecap="round" stroke-linejoin="round"/>
<path d="M38.4637 41.5359C37.5259 40.598 36.999 39.3261 36.999 37.9998C36.999 36.6735 37.5259 35.4015 38.4637 34.4637C39.4015 33.5259 40.6735 32.999 41.9998 32.999C43.3261 32.999 44.598 33.5259 45.5359 34.4637" stroke="white" stroke-width="1.8" stroke-linecap="round" stroke-linejoin="round"/>
<path d="M47.0009 51.0002L45.8309 49.8282C45.5683 49.5655 45.2565 49.3571 44.9133 49.215C44.5701 49.0728 44.2023 48.9996 43.8309 48.9996C43.4594 48.9996 43.0916 49.0728 42.7484 49.215C42.4052 49.3571 42.0934 49.5655 41.8308 49.8282C41.368 50.2905 41.0798 50.899 41.0153 51.5499C40.9507 52.2009 41.1138 52.8541 41.4768 53.3983L45.3569 59.2184C45.7221 59.7665 46.2169 60.2159 46.7975 60.5267C47.3781 60.8376 48.0264 61.0003 48.685 61.0004H56.2771C57.2519 61.0002 58.1931 60.644 58.9237 59.9987C59.6544 59.3535 60.1243 58.4636 60.2452 57.4964L60.9692 51.7023C61.0976 50.6754 60.8231 49.6387 60.2032 48.81C59.5834 47.9813 58.6665 47.4251 57.6452 47.2582L53.0011 46.5022V42.0001C53.0011 41.2044 52.685 40.4413 52.1224 39.8787C51.5597 39.3161 50.7967 39 50.001 39C49.2053 39 48.4423 39.3161 47.8796 39.8787C47.317 40.4413 47.0009 41.2044 47.0009 42.0001V51.0002Z" stroke="white" stroke-width="1.8" stroke-linecap="round" stroke-linejoin="round"/>
<defs>
<linearGradient id="paint0_linear_5300_73895" x1="104.666" y1="-272.632" x2="-61.8337" y2="-255.636" gradientUnits="userSpaceOnUse">
<stop stop-color="#18D8F6"/>
<stop offset="1" stop-color="#1C45DF"/>
</linearGradient>
</defs>
</svg>
