<svg width="84" height="84" viewBox="0 0 84 84" fill="none" xmlns="http://www.w3.org/2000/svg">
<circle cx="42" cy="42" r="40.5" stroke="#E1E1F5" stroke-width="3"/>
<circle cx="42" cy="42" r="34" fill="#E1E1F5"/>
<path d="M42 56.9999C44.3199 56.9999 48.2875 53.9999 48.2875 42C48.2875 30 44.3206 27 42 27C39.6801 27 35.7125 30.2021 35.7125 42C35.7125 53.7978 39.6801 56.9999 42 56.9999Z" stroke="#6C2B95" stroke-width="1.47541" stroke-linecap="round" stroke-linejoin="round"/>
<path d="M28.3868 49.8571C29.5467 51.8657 34.2535 53.7292 45.1441 47.4435C56.0347 41.1578 56.7731 36.1514 55.6132 34.1428C54.4532 32.1343 49.5634 30.3764 38.8559 36.5564C28.1505 42.7364 27.2276 47.8485 28.3875 49.8571H28.3868Z" stroke="#6C2B95" stroke-width="1.47541" stroke-linecap="round" stroke-linejoin="round"/>
<path d="M28.3868 34.1428C27.2269 36.1514 27.9653 41.1578 38.8559 47.4435C49.7465 53.7292 54.4533 51.8657 55.6139 49.8571C56.7739 47.8485 55.8517 42.7357 45.1441 36.5564C34.4366 30.3764 29.5468 32.1343 28.3861 34.1428H28.3868Z" stroke="#6C2B95" stroke-width="1.47541" stroke-linecap="round" stroke-linejoin="round"/>
</svg>
