<svg width="18" height="16" viewBox="0 0 18 16" fill="none" xmlns="http://www.w3.org/2000/svg">
<path fill-rule="evenodd" clip-rule="evenodd" d="M8.99984 4.00989L7.88817 3.01489C7.40851 2.58606 6.81498 2.30521 6.17923 2.20624C5.54348 2.10727 4.89267 2.19442 4.30534 2.45715C3.71802 2.71989 3.21929 3.14699 2.86934 3.6869C2.51939 4.22682 2.33317 4.85648 2.33317 5.49989C2.33317 7.99989 3.44984 9.84322 4.85984 11.2082C6.29484 12.5974 7.98317 13.4316 8.90484 13.8166C8.93479 13.8297 8.96714 13.8365 8.99984 13.8365C9.03254 13.8365 9.06489 13.8297 9.09484 13.8166C10.0165 13.4316 11.7048 12.5974 13.1398 11.2082C14.5498 9.84322 15.6665 7.99989 15.6665 5.49989C15.6665 4.85648 15.4803 4.22682 15.1303 3.6869C14.7804 3.14699 14.2817 2.71989 13.6943 2.45715C13.107 2.19442 12.4562 2.10727 11.8204 2.20624C11.1847 2.30521 10.5912 2.58606 10.1115 3.01489L8.99984 4.00989ZM8.99984 1.77322C8.28042 1.12975 7.39013 0.708268 6.43644 0.559639C5.48275 0.41101 4.50642 0.541593 3.62531 0.935625C2.7442 1.32966 1.99598 1.9703 1.47094 2.78021C0.945914 3.59012 0.666526 4.53469 0.666504 5.49989C0.666504 11.6257 6.22567 14.5049 8.26317 15.3541C8.73817 15.5524 9.26234 15.5524 9.7365 15.3541C11.7732 14.5049 17.3332 11.6257 17.3332 5.49989C17.3331 4.53469 17.0538 3.59012 16.5287 2.78021C16.0037 1.9703 15.2555 1.32966 14.3744 0.935625C13.4933 0.541593 12.5169 0.41101 11.5632 0.559639C10.6095 0.708268 9.71926 1.12975 8.99984 1.77322Z" fill="#0979FD"/>
</svg>
