<svg width="25" height="25" viewBox="0 0 25 25" fill="none" xmlns="http://www.w3.org/2000/svg">
<path d="M13.672 12.2771L8.722 17.2271L10.136 18.6411L16.5 12.2771L10.136 5.91309L8.722 7.32709L13.672 12.2771Z" fill="white"/>
</svg>
