<svg width="36" height="36" viewBox="0 0 36 36" fill="none" xmlns="http://www.w3.org/2000/svg">
<rect width="36" height="36" rx="18" fill="#F3F9FF"/>
<path d="M23.0002 15.17C22.8128 14.9838 22.5594 14.8792 22.2952 14.8792C22.031 14.8792 21.7776 14.9838 21.5902 15.17L18.0002 18.71L14.4602 15.17C14.2728 14.9838 14.0194 14.8792 13.7552 14.8792C13.491 14.8792 13.2376 14.9838 13.0502 15.17C12.9565 15.263 12.8821 15.3736 12.8313 15.4954C12.7805 15.6173 12.7544 15.748 12.7544 15.88C12.7544 16.012 12.7805 16.1427 12.8313 16.2646C12.8821 16.3864 12.9565 16.497 13.0502 16.59L17.2902 20.83C17.3832 20.9237 17.4938 20.9981 17.6156 21.0489C17.7375 21.0997 17.8682 21.1258 18.0002 21.1258C18.1322 21.1258 18.2629 21.0997 18.3848 21.0489C18.5066 20.9981 18.6172 20.9237 18.7102 20.83L23.0002 16.59C23.0939 16.497 23.1683 16.3864 23.2191 16.2646C23.2699 16.1427 23.296 16.012 23.296 15.88C23.296 15.748 23.2699 15.6173 23.2191 15.4954C23.1683 15.3736 23.0939 15.263 23.0002 15.17Z" fill="#0979FD"/>
</svg>
