<svg width="65" height="64" viewBox="0 0 65 64" fill="none" xmlns="http://www.w3.org/2000/svg">
<rect x="0.5" width="64" height="64" rx="12" fill="#DDEFFF"/>
<g clip-path="url(#clip0_5834_73438)">
<path d="M43.184 30.7525C43.184 30.6849 43.1875 20.7182 43.1875 20.7182L28.3438 13.2969L13.5 20.7188V30.5501C13.4942 36.7068 16.5714 42.4576 21.6968 45.8688L28.3438 50.2981L33.4643 46.8872C36.2318 50.4323 41.0126 51.7164 45.1839 50.0352C49.3555 48.3539 51.9097 44.1139 51.4458 39.6405C50.9816 35.1668 47.6116 31.5414 43.184 30.7519V30.7525ZM28.3438 48.8732L22.3558 44.8819C17.5603 41.6908 14.6814 36.3102 14.6875 30.5501V21.4525L28.3438 14.6244L42 21.4525V30.6159C41.8029 30.6041 41.6075 30.5858 41.4063 30.5858C41.2051 30.5858 41.0091 30.6041 40.8125 30.6159C40.8125 30.5939 40.8125 22.1849 40.8125 22.1849L28.3438 15.9511L15.875 22.1854V30.5501C15.8707 35.9127 18.5509 40.9213 23.0148 43.8927L28.3438 47.4433L32.2281 44.8552C32.3942 45.2176 32.5818 45.5699 32.7896 45.9099L28.3438 48.8732ZM31.7839 43.7248L28.3438 46.0166L23.6741 42.9049C23.4436 42.751 23.2203 42.5895 23 42.424V37.117H21.8125V41.4275C21.1608 40.8233 20.5647 40.1615 20.0313 39.4503V36C20.0315 35.1836 20.5867 34.4718 21.3785 34.273L25.4052 33.2635C25.5345 34.551 26.4834 35.6057 27.75 35.8701V38.3045H28.9375V35.8701C30.2042 35.606 31.1528 34.551 31.2818 33.2635L33.925 33.9274C31.5152 36.5775 30.6993 40.3105 31.7839 43.7242V43.7248ZM25.375 25.8358H27.0162C27.9327 25.8346 28.8378 25.6317 29.6672 25.242H29.8281L31.3125 27.221V29.6952L29.3335 31.1795H27.354L25.375 29.6952V25.8358ZM24.2368 24.6483C24.3571 23.9038 24.8311 23.2639 25.5087 22.9323C26.822 22.3478 28.3017 22.2547 29.678 22.6699L29.8145 22.867H30.7188C31.0467 22.867 31.3125 23.1329 31.3125 23.4608V25.242L30.4219 24.0545H29.3912L29.266 24.1169C28.567 24.4651 27.797 24.6471 27.0162 24.6483H24.2368ZM30.125 32.0702V32.9608C30.125 33.9445 29.3274 34.742 28.3438 34.742C27.3601 34.742 26.5625 33.9445 26.5625 32.9608V32.0702L26.9585 32.367H29.729L30.125 32.0702ZM31.3125 32.047V31.1795L32.5 30.2889V23.4608C32.5 22.4768 31.7024 21.6795 30.7188 21.6795H30.3239C29.4649 21.1574 27.3261 21.0519 25.8113 21.5256C24.1127 21.9428 22.9394 23.4938 23 25.242V25.8358H24.1875V30.2889L25.375 31.1795V32.0441L21.0895 33.1217C19.7686 33.4513 18.8423 34.6388 18.8438 36V37.6032C17.6737 35.4367 17.0613 33.0127 17.0625 30.5501V22.9192L28.3438 17.2786L39.625 22.9192V30.5501C39.625 30.6183 39.621 30.6861 39.6204 30.7536C37.8887 31.0633 36.2689 31.822 34.9226 32.9541L31.3125 32.047ZM41.4063 49.5858C36.4875 49.5858 32.5 45.5983 32.5 40.6795C32.5 35.7605 36.4875 31.7733 41.4063 31.7733C46.325 31.7733 50.3125 35.7605 50.3125 40.6795C50.307 45.596 46.3227 49.58 41.4063 49.5858Z" fill="#2391FD"/>
<path d="M44.375 23.4607H51.5V24.6482H44.375V23.4607Z" fill="#2391FD"/>
<path d="M44.375 25.8357H49.125V27.0232H44.375V25.8357Z" fill="#2391FD"/>
<path d="M44.375 28.2107H46.75V29.3982H44.375V28.2107Z" fill="#2391FD"/>
<path d="M39.2199 40.2598L37.1212 38.1608L33.7622 41.5192L39.2199 46.9769L48.4564 37.7404L45.0974 34.3823L39.2199 40.2598ZM39.2199 45.2977L35.4414 41.5192L37.1212 39.84L39.2199 41.9387L45.098 36.0607L46.7777 37.7399L39.2199 45.2977Z" fill="#2391FD"/>
</g>
<defs>
<clipPath id="clip0_5834_73438">
<rect width="38" height="38" fill="white" transform="translate(13.5 13)"/>
</clipPath>
</defs>
</svg>
