<svg width="100" height="100" viewBox="0 0 100 100" fill="none" xmlns="http://www.w3.org/2000/svg">
<path d="M46.125 2.52591C48.5229 1.1415 51.4771 1.1415 53.875 2.52591L89.1763 22.9071C91.5741 24.2915 93.0513 26.85 93.0513 29.6188V70.3812C93.0513 73.15 91.5741 75.7085 89.1763 77.0929L53.875 97.4741C51.4771 98.8585 48.5229 98.8585 46.125 97.4741L10.8237 77.0929C8.42587 75.7085 6.94873 73.15 6.94873 70.3812V29.6188C6.94873 26.85 8.42587 24.2915 10.8237 22.9071L46.125 2.52591Z" fill="white" stroke="#0979FD" stroke-width="0.5"/>
<path opacity="0.8" d="M46 10.6427C48.4752 9.21368 51.5248 9.21368 54 10.6427L82.0844 26.8573C84.5596 28.2863 86.0844 30.9274 86.0844 33.7855V66.2145C86.0844 69.0727 84.5596 71.7137 82.0844 73.1427L54 89.3573C51.5248 90.7863 48.4753 90.7863 46 89.3573L17.9157 73.1427C15.4404 71.7137 13.9156 69.0727 13.9156 66.2145V33.7855C13.9156 30.9274 15.4404 28.2863 17.9156 26.8573L46 10.6427Z" fill="#DDEFFF"/>
<g clip-path="url(#clip0_5702_19783)">
<path d="M62.1175 40.4791L50.0905 34.0705C49.9121 33.9753 49.6983 33.9766 49.5212 34.0739L37.827 40.4825C37.6352 40.5877 37.5162 40.7889 37.5162 41.0077V49.379C37.5233 56.2604 41.6003 62.4859 47.9053 65.2428L49.5285 65.9502C49.6802 66.0163 49.853 66.0167 50.005 65.9508L51.834 65.1609C58.256 62.4639 62.434 56.1782 62.4346 49.2129V41.0077C62.4346 40.7865 62.3127 40.583 62.1175 40.4791ZM61.2371 49.2129C61.2358 55.6981 57.3448 61.5497 51.3652 64.0593L51.3612 64.0613L49.7684 64.749L48.3845 64.1452C42.5155 61.5791 38.7201 55.7846 38.7134 49.379V41.3622L49.8129 35.2791L61.2371 41.3666V49.2129Z" fill="#0979FD"/>
<path d="M45.3953 48.9907C45.1805 48.7391 44.8026 48.7094 44.551 48.9243C44.2994 49.1388 44.2696 49.517 44.4845 49.7683L47.6473 53.4721C47.8585 53.7194 48.2284 53.7531 48.4803 53.5479L55.8466 47.555C56.1032 47.3465 56.1419 46.9693 55.9331 46.7126C55.7246 46.4564 55.3474 46.4173 55.0908 46.6261L48.1783 52.2495L45.3953 48.9907Z" fill="#0979FD"/>
</g>
<defs>
<clipPath id="clip0_5702_19783">
<rect width="32" height="32" fill="white" transform="translate(34 34)"/>
</clipPath>
</defs>
</svg>
