<svg width="14" height="20" viewBox="0 0 14 20" fill="none" xmlns="http://www.w3.org/2000/svg">
<path d="M8.66685 19.7734V11.1302H12.3558L12.9093 7.7608H8.66685V5.60992C8.66685 4.6347 9.00993 3.9701 10.7909 3.9701L13.0586 3.96937V0.955649C12.6664 0.915585 11.3202 0.82373 9.75342 0.82373C6.48162 0.82373 4.24168 2.39368 4.24168 5.27621V7.7608H0.541504V11.1302H4.24168V19.7734H8.66685Z" fill="white"/>
</svg>
