<svg width="14" height="12" viewBox="0 0 14 12" fill="none" xmlns="http://www.w3.org/2000/svg">
<path d="M11.0835 11.7506H2.91683C2.76212 11.7506 2.61375 11.6891 2.50435 11.5798C2.39495 11.4704 2.3335 11.322 2.3335 11.1673V5.91727H0.583496L6.60758 0.440938C6.71498 0.343216 6.85496 0.289062 7.00016 0.289062C7.14537 0.289063 7.28535 0.343216 7.39275 0.440938L13.4168 5.91727H11.6668V11.1673C11.6668 11.322 11.6054 11.4704 11.496 11.5798C11.3866 11.6891 11.2382 11.7506 11.0835 11.7506ZM3.50016 10.5839H10.5002V4.84219L7.00016 1.66069L3.50016 4.84219V10.5839Z" fill="white"/>
</svg>
