<svg width="178" height="41" viewBox="0 0 178 41" fill="none" xmlns="http://www.w3.org/2000/svg">
<g clip-path="url(#clip0_3522_18673)">
<path d="M162.846 6.07241C164.519 6.07241 165.875 4.71306 165.875 3.03621C165.875 1.35936 164.519 0 162.846 0C161.173 0 159.817 1.35936 159.817 3.03621C159.817 4.71306 161.173 6.07241 162.846 6.07241Z" fill="url(#paint0_linear_3522_18673)"/>
<path d="M174.459 17.5685C176.132 17.5685 177.488 16.2092 177.488 14.5323C177.488 12.8555 176.132 11.4961 174.459 11.4961C172.786 11.4961 171.43 12.8555 171.43 14.5323C171.43 16.2092 172.786 17.5685 174.459 17.5685Z" fill="url(#paint1_linear_3522_18673)"/>
<path d="M151.471 17.5685C153.144 17.5685 154.5 16.2092 154.5 14.5323C154.5 12.8555 153.144 11.4961 151.471 11.4961C149.798 11.4961 148.442 12.8555 148.442 14.5323C148.442 16.2092 149.798 17.5685 151.471 17.5685Z" fill="url(#paint2_linear_3522_18673)"/>
<path d="M162.846 28.9699C164.519 28.9699 165.875 27.6105 165.875 25.9337C165.875 24.2568 164.519 22.8975 162.846 22.8975C161.173 22.8975 159.817 24.2568 159.817 25.9337C159.817 27.6105 161.173 28.9699 162.846 28.9699Z" fill="url(#paint3_linear_3522_18673)"/>
<path d="M168.851 15.845V13.2632C168.851 12.6933 169.147 12.1548 169.645 11.8817C170.677 11.3196 171.348 10.1718 171.212 8.88224C171.057 7.42192 169.836 6.26364 168.372 6.18485C167.166 6.11919 166.105 6.76005 165.56 7.73184C165.282 8.22562 164.748 8.51453 164.182 8.51453H161.596C161.019 8.51453 160.474 8.20986 160.207 7.6977C159.654 6.64448 158.504 5.95897 157.207 6.0903C155.805 6.23475 154.668 7.36414 154.516 8.76668C154.377 10.0484 155.034 11.1909 156.054 11.7609C156.549 12.0366 156.837 12.5751 156.837 13.1424V15.8319C156.837 16.3992 156.546 16.9376 156.054 17.2134C155.034 17.7834 154.377 18.9259 154.516 20.2076C154.668 21.6023 155.792 22.729 157.183 22.8814C158.462 23.0232 159.602 22.3639 160.17 21.3396C160.445 20.8432 160.982 20.5543 161.548 20.5543H164.308C164.892 20.5543 165.44 20.8669 165.707 21.3869C166.252 22.448 167.402 23.1466 168.702 23.0206C170.132 22.8814 171.291 21.71 171.416 20.2733C171.532 18.9574 170.808 17.7991 169.724 17.2712C169.184 17.0059 168.851 16.4465 168.851 15.845ZM164.465 19.1702H161.561C160.993 19.1702 160.45 18.8786 160.173 18.3796C159.9 17.8911 159.494 17.4866 159.007 17.2108C158.509 16.9324 158.218 16.3887 158.218 15.8188V13.1319C158.218 12.5488 158.54 12.0261 159.043 11.7346C159.486 11.4772 159.856 11.1121 160.12 10.6761C160.411 10.1929 160.927 9.89081 161.491 9.89081H164.179C164.758 9.89081 165.285 10.2112 165.573 10.7155C165.838 11.1778 166.218 11.5639 166.676 11.8318C167.169 12.1207 167.478 12.6434 167.478 13.2159V16.1129C167.478 16.6461 167.219 17.1504 166.771 17.4393C166.385 17.6888 166.058 18.0224 165.819 18.4137C165.529 18.8865 165.015 19.1702 164.465 19.1702Z" fill="url(#paint4_linear_3522_18673)"/>
<path d="M17.2179 40.3083C17.0345 40.3083 16.8301 40.2479 16.6074 40.1297C16.3846 40.0089 16.2117 39.8644 16.0885 39.6937L8.99806 29.9363C8.85918 29.7656 8.74127 29.6763 8.6417 29.6658C8.54213 29.6579 8.47662 29.6527 8.44518 29.6527C8.29058 29.6527 8.14647 29.7052 8.00759 29.8076L3.54263 33.6843C3.38803 33.8393 3.26225 34.0363 3.16268 34.2753C3.06311 34.5143 3.01333 34.7375 3.01333 34.9424V39.5387C3.01333 39.7436 2.9452 39.9248 2.80633 40.0772C2.66745 40.2321 2.49975 40.3083 2.30061 40.3083H0.689135C0.505715 40.3083 0.343257 40.2321 0.207003 40.0772C0.0681274 39.9248 0 39.7436 0 39.5387V19.3858C0 19.1809 0.0681274 18.9997 0.207003 18.8473C0.345878 18.695 0.505715 18.6162 0.689135 18.6162H2.30061C2.49975 18.6162 2.66745 18.6924 2.80633 18.8473C2.9452 19.0023 3.01333 19.1809 3.01333 19.3858V29.5791C3.01333 29.8024 3.04477 29.9311 3.10504 29.9652C3.1653 29.9994 3.21247 30.0177 3.24391 30.0177C3.33562 30.0177 3.43519 29.9757 3.54263 29.8891L15.9261 19.1047C16.0807 18.9682 16.2746 18.8526 16.513 18.758C16.7515 18.6635 16.969 18.6162 17.1681 18.6162H20.2286C20.4435 18.6162 20.5509 18.6687 20.5509 18.7712C20.5509 18.8578 20.488 18.9682 20.3675 19.1047L11.4611 26.8318C11.3065 26.9684 11.2279 27.0892 11.2201 27.1917C11.2122 27.2941 11.2096 27.3624 11.2096 27.3965C11.2096 27.5672 11.262 27.7301 11.3694 27.885L20.0923 39.6937C20.1683 39.8145 20.2076 39.9248 20.2076 40.0273C20.2076 40.2164 20.0845 40.3109 19.8408 40.3109H17.2179V40.3083Z" fill="url(#paint5_linear_3522_18673)"/>
<path d="M23.7869 38.3076C23.2183 37.8795 22.7362 37.4855 22.3379 37.1257L21.7169 36.5873C21.578 36.4507 21.5047 36.3167 21.4968 36.188C21.4889 36.0593 21.4863 35.97 21.4863 35.9175C21.4863 35.7626 21.5335 35.6102 21.6252 35.4553L22.6602 33.9161C22.7834 33.7454 22.8934 33.6561 22.993 33.6456C23.0926 33.6377 23.1502 33.6325 23.1659 33.6325C23.3205 33.6325 23.4646 33.6929 23.6035 33.8111L24.0856 34.2733C24.4079 34.5806 24.7957 34.9247 25.2464 35.3003C25.6997 35.6759 26.14 35.9937 26.5697 36.2511C27.796 36.9524 29.2555 37.3043 30.9429 37.3043C31.9098 37.3043 32.8374 37.173 33.7283 36.9051C34.6192 36.6398 35.3476 36.2458 35.9136 35.7232C36.4822 35.2005 36.7652 34.5386 36.7652 33.7323C36.7652 33.031 36.511 32.5005 36.0053 32.1406C35.4996 31.7808 34.7712 31.5024 33.82 31.3054C32.8688 31.1084 31.7107 30.9167 30.3455 30.7276C28.6738 30.4702 27.2274 30.0946 26.0063 29.5982C24.7853 29.1018 23.842 28.4294 23.1764 27.5837C22.5082 26.7354 22.1755 25.6795 22.1755 24.4136C22.1755 23.0452 22.558 21.8843 23.3258 20.9361C24.0935 19.9853 25.1285 19.2578 26.4334 18.7535C27.7383 18.2492 29.1952 17.9971 30.8067 17.9971C33.5999 17.9971 35.7695 18.6222 37.3207 19.8724C37.7662 20.2322 38.133 20.55 38.4265 20.8232L38.8405 21.2592C38.9793 21.4141 39.0475 21.6006 39.0475 21.8238C39.0475 22.0287 38.9846 22.2178 38.8641 22.3885L37.8055 23.6729C37.6666 23.8436 37.5067 23.9303 37.3233 23.9303C37.1399 23.9303 36.9775 23.862 36.8412 23.7254L36.5189 23.3919C36.2883 23.1686 36.0053 22.9165 35.6673 22.6354C35.3293 22.3518 34.9756 22.1101 34.6087 21.9053C33.503 21.3064 32.2059 21.007 30.7176 21.007C29.7193 21.007 28.8231 21.1278 28.0239 21.3668C27.2274 21.6058 26.5959 21.9525 26.1373 22.4069C25.6762 22.8613 25.4482 23.405 25.4482 24.038C25.4482 24.8075 25.6919 25.4169 26.1845 25.8607C26.6745 26.3072 27.3689 26.6539 28.2676 26.9008C29.1664 27.1503 30.204 27.35 31.3858 27.5049C32.5046 27.6599 33.5842 27.8437 34.6192 28.0565C35.6542 28.2718 36.5844 28.5791 37.4046 28.981C38.2247 29.3828 38.8745 29.9318 39.3488 30.6252C39.8231 31.3186 40.0615 32.2142 40.0615 33.3068C40.0615 34.7093 39.6842 35.9385 38.9348 36.9917C38.1828 38.045 37.1189 38.8618 35.7459 39.4422C34.3729 40.0253 32.764 40.3142 30.9246 40.3142C27.9296 40.309 25.5504 39.6419 23.7869 38.3076Z" fill="url(#paint6_linear_3522_18673)"/>
<path d="M43.3085 40.3083C43.1093 40.3083 42.9442 40.2321 42.8132 40.0772C42.6822 39.9222 42.6167 39.7436 42.6167 39.5387V19.3858C42.6167 19.1809 42.6822 18.9997 42.8132 18.8473C42.9442 18.6924 43.1093 18.6162 43.3085 18.6162H57.8563C58.0397 18.6162 58.2022 18.6924 58.3384 18.8473C58.4747 19.0023 58.5454 19.1809 58.5454 19.3858V21.0798C58.5454 21.2847 58.4773 21.4659 58.3384 21.6183C58.1995 21.7732 58.0397 21.8494 57.8563 21.8494H46.3008C46.1174 21.8494 45.9549 21.9256 45.8187 22.0805C45.6798 22.2355 45.6117 22.4141 45.6117 22.619V27.3939C45.6117 27.5988 45.6798 27.78 45.8187 27.9323C45.9576 28.0873 46.1174 28.1635 46.3008 28.1635H56.6116C56.7951 28.1635 56.9575 28.2396 57.0938 28.3946C57.2326 28.5496 57.3008 28.7282 57.3008 28.933V30.6008C57.3008 30.8241 57.2326 31.0079 57.0938 31.1524C56.9549 31.2968 56.7951 31.3704 56.6116 31.3704H46.3008C46.1174 31.3704 45.9549 31.4466 45.8187 31.6015C45.6798 31.7565 45.6117 31.9351 45.6117 32.1399V39.5335C45.6117 39.7383 45.5436 39.9196 45.4047 40.0719C45.2658 40.2269 45.106 40.303 44.9226 40.303H43.3085V40.3083Z" fill="url(#paint7_linear_3522_18673)"/>
<path d="M59.9815 20.0006C59.6907 19.6591 59.5439 19.2047 59.5439 18.6401C59.5439 18.162 59.6907 17.7339 59.9815 17.3557C60.2724 16.9801 60.7178 16.791 61.3179 16.791C61.9153 16.791 62.3608 16.9617 62.6542 17.3032C62.9451 17.6446 63.0918 18.0911 63.0918 18.6374C63.0918 19.1181 62.9451 19.5488 62.6542 19.9349C62.3634 20.321 61.9179 20.5127 61.3179 20.5127C60.7178 20.5154 60.2724 20.3446 59.9815 20.0006ZM60.4663 40.3085C60.3117 40.3085 60.1781 40.2455 60.0628 40.1168C59.9475 39.9881 59.8898 39.8384 59.8898 39.6676V24.6993C59.8898 24.5102 59.9475 24.3579 60.0628 24.2371C60.1781 24.1163 60.3117 24.0585 60.4663 24.0585H62.1695C62.3372 24.0585 62.4813 24.1189 62.594 24.2371C62.7093 24.3579 62.7669 24.5102 62.7669 24.6993V39.6676C62.7669 39.8384 62.7093 39.9881 62.594 40.1168C62.4787 40.2455 62.3372 40.3085 62.1695 40.3085H60.4663Z" fill="url(#paint8_linear_3522_18673)"/>
<path d="M78.8396 40.2319C78.6693 40.2319 78.533 40.1689 78.4256 40.0402C78.3182 39.9115 78.2658 39.7618 78.2658 39.5911C78.2658 34.2173 78.2553 31.4043 78.2317 31.1574C78.2081 30.9105 78.1898 30.6925 78.174 30.5034L78.1269 30.1961C78.0509 29.684 77.8806 29.2033 77.6212 28.7595C77.1914 28.0923 76.615 27.5644 75.8944 27.1809C75.1738 26.7949 74.3746 26.6031 73.4995 26.6031C72.7003 26.6031 71.964 26.7607 71.2906 27.0785C70.6145 27.3963 70.0328 27.8087 69.5402 28.3235C69.0502 28.8383 68.6729 29.3767 68.4109 29.9414C68.272 30.2329 68.1881 30.4719 68.1593 30.661L68.0912 30.9683C68.0283 31.3439 67.9995 31.772 67.9995 32.2527V39.5963C67.9995 39.767 67.9471 39.9167 67.8396 40.0454C67.7322 40.1741 67.5933 40.2372 67.4256 40.2372H65.7225C65.5679 40.2372 65.4342 40.1741 65.3189 40.0454C65.2036 39.9167 65.146 39.767 65.146 39.5963V24.6228C65.146 24.4337 65.2036 24.2761 65.3189 24.1474C65.4342 24.0187 65.5679 23.9556 65.7225 23.9556H67.4256C67.5933 23.9556 67.7322 24.0187 67.8396 24.1474C67.9471 24.2761 67.9995 24.4337 67.9995 24.6228V26.3168C67.9995 26.5401 68.0519 26.6504 68.1619 26.6504C68.2222 26.6504 68.3087 26.6084 68.4135 26.5217L68.7594 26.1881C68.9742 25.9649 69.2441 25.7101 69.5638 25.4186C69.8861 25.127 70.2241 24.8618 70.5778 24.6228C71.6207 23.9556 72.8182 23.6221 74.1676 23.6221C75.7031 23.6221 76.9818 23.9399 78.0116 24.5729C79.4554 25.4632 80.3672 26.7134 80.7498 28.3208C80.8572 28.7673 80.9332 29.1508 80.9804 29.4765L81.0485 29.9886C81.0957 30.5533 81.1166 30.9815 81.1166 31.273V39.5911C81.1166 39.7618 81.059 39.9115 80.9437 40.0402C80.8284 40.1689 80.6948 40.2319 80.5402 40.2319H78.8396Z" fill="url(#paint9_linear_3522_18673)"/>
<path d="M99.2615 40.3083C99.1069 40.3083 98.9733 40.2453 98.858 40.1166C98.7427 39.9879 98.6851 39.8382 98.6851 39.6675V37.7922C98.6851 37.5873 98.63 37.4849 98.5226 37.4849C98.4623 37.4849 98.3759 37.5269 98.2711 37.6136L97.9252 37.9471C97.6946 38.1861 97.4037 38.4278 97.05 38.6668C95.47 39.7463 93.7118 40.2847 91.778 40.2847C90.0145 40.2847 88.479 39.9249 87.1741 39.2052C85.8692 38.4856 84.8631 37.4849 84.1582 36.2005C83.4533 34.9162 83.0996 33.4611 83.0996 31.8353C83.0996 30.1754 83.4769 28.7124 84.2263 27.4465C84.9783 26.1805 86.0134 25.1825 87.334 24.4549C88.6546 23.7274 90.1875 23.3623 91.9378 23.3623C94.3013 23.3623 96.2954 24.0294 97.9225 25.3663L98.2213 25.6237C98.313 25.7104 98.3968 25.7524 98.4754 25.7524C98.6143 25.7524 98.6824 25.6316 98.6824 25.3926V24.3656C98.6824 24.1765 98.7401 24.0242 98.8554 23.9034C98.9707 23.7825 99.1043 23.7248 99.2589 23.7248H100.962C101.117 23.7248 101.25 23.7852 101.366 23.9034C101.481 24.0242 101.539 24.1765 101.539 24.3656V39.6675C101.539 39.8382 101.481 39.9879 101.366 40.1166C101.25 40.2453 101.117 40.3083 100.962 40.3083H99.2615ZM95.7634 36.6129C96.7146 36.1349 97.4588 35.4782 97.9959 34.6483C98.5331 33.8183 98.8003 32.8807 98.8003 31.8379C98.8003 30.7768 98.5331 29.8366 97.9959 29.0145C97.4588 28.1924 96.7146 27.5437 95.7634 27.063C94.8123 26.585 93.6908 26.3434 92.4016 26.3434C91.1753 26.3434 90.0774 26.5824 89.1105 27.063C88.1436 27.5437 87.389 28.1924 86.844 29.0145C86.299 29.8366 86.0265 30.7768 86.0265 31.8379C86.0265 32.8833 86.299 33.8183 86.844 34.6483C87.389 35.4782 88.1436 36.1322 89.1105 36.6129C90.0774 37.0935 91.1753 37.3325 92.4016 37.3325C93.6908 37.3299 94.8123 37.0909 95.7634 36.6129Z" fill="url(#paint10_linear_3522_18673)"/>
<path d="M117.08 40.2319C116.91 40.2319 116.773 40.1689 116.666 40.0402C116.558 39.9115 116.506 39.7618 116.506 39.5911C116.506 34.2173 116.496 31.4043 116.472 31.1574C116.448 30.9105 116.43 30.6925 116.414 30.5034L116.367 30.1961C116.291 29.684 116.121 29.2033 115.861 28.7595C115.432 28.0923 114.855 27.5644 114.135 27.1809C113.414 26.7949 112.615 26.6031 111.74 26.6031C110.941 26.6031 110.204 26.7607 109.531 27.0785C108.855 27.3963 108.273 27.8087 107.78 28.3235C107.29 28.8383 106.913 29.3767 106.651 29.9414C106.512 30.2329 106.428 30.4719 106.4 30.661L106.331 30.9683C106.269 31.3439 106.24 31.772 106.24 32.2527V39.5963C106.24 39.767 106.187 39.9167 106.08 40.0454C105.972 40.1741 105.834 40.2372 105.666 40.2372H103.963C103.808 40.2372 103.674 40.1741 103.559 40.0454C103.444 39.9167 103.386 39.767 103.386 39.5963V24.6228C103.386 24.4337 103.444 24.2761 103.559 24.1474C103.674 24.0187 103.808 23.9556 103.963 23.9556H105.666C105.834 23.9556 105.972 24.0187 106.08 24.1474C106.187 24.2761 106.24 24.4337 106.24 24.6228V26.3168C106.24 26.5401 106.292 26.6504 106.402 26.6504C106.462 26.6504 106.549 26.6084 106.654 26.5217L107 26.1881C107.214 25.9649 107.484 25.7101 107.804 25.4186C108.126 25.127 108.464 24.8618 108.818 24.6228C109.861 23.9556 111.058 23.6221 112.408 23.6221C113.943 23.6221 115.222 23.9399 116.252 24.5729C117.696 25.4632 118.607 26.7134 118.99 28.3208C119.097 28.7673 119.173 29.1508 119.221 29.4765L119.289 29.9886C119.336 30.5533 119.357 30.9815 119.357 31.273V39.5911C119.357 39.7618 119.299 39.9115 119.184 40.0402C119.069 40.1689 118.935 40.2319 118.78 40.2319H117.08Z" fill="url(#paint11_linear_3522_18673)"/>
<path d="M124.762 39.1156C123.389 38.3723 122.31 37.3612 121.529 36.0873C120.745 34.8135 120.355 33.3794 120.355 31.7878C120.355 30.1804 120.745 28.7358 121.529 27.462C122.312 26.1881 123.389 25.1769 124.762 24.4336C126.135 23.6903 127.673 23.3174 129.377 23.3174C131.08 23.3174 132.66 23.601 134.119 24.1657C135.055 24.5413 135.906 25.0561 136.674 25.7049L137.112 26.0909C137.264 26.2459 137.342 26.4166 137.342 26.6031C137.342 26.7397 137.311 26.8763 137.251 27.0128L136.284 28.5546C136.192 28.7095 136.103 28.791 136.019 28.7988C135.935 28.8067 135.878 28.812 135.846 28.812C135.739 28.812 135.623 28.7699 135.5 28.6833L134.811 28.0923C133.967 27.4593 132.961 26.9629 131.795 26.6031C130.98 26.3457 130.176 26.217 129.379 26.217C128.182 26.217 127.128 26.456 126.214 26.9367C125.302 27.4173 124.595 28.0739 124.097 28.9144C123.599 29.7523 123.35 30.7109 123.35 31.7904C123.35 32.8515 123.617 33.8023 124.154 34.6401C124.692 35.478 125.42 36.1425 126.34 36.631C127.259 37.1195 128.281 37.3638 129.4 37.3638C130.904 37.3638 132.186 37.1169 133.244 36.6179C133.611 36.4471 133.97 36.2685 134.313 36.0794C134.659 35.8903 134.947 35.7301 135.175 35.5909L135.498 35.4123C135.605 35.344 135.712 35.3099 135.82 35.3099C136.019 35.3099 136.195 35.4123 136.349 35.6172L137.248 37.0539C137.308 37.1563 137.34 37.2692 137.34 37.3874C137.34 37.6107 137.248 37.7735 137.065 37.8759L135.409 38.8005C134.932 39.0395 134.473 39.2548 134.028 39.4413C132.694 39.9719 131.143 40.2371 129.379 40.2371C127.673 40.2319 126.135 39.8589 124.762 39.1156Z" fill="url(#paint12_linear_3522_18673)"/>
<path d="M142.457 39.1685C141.04 38.4594 139.929 37.4823 139.124 36.2321C138.32 34.9846 137.919 33.5663 137.919 31.9772C137.919 30.6115 138.16 29.3928 138.642 28.3238C139.124 27.2548 139.795 26.3487 140.652 25.6054C141.509 24.8621 142.494 24.2948 143.605 23.9008C144.716 23.5069 145.892 23.3125 147.132 23.3125C148.694 23.3125 150.111 23.6513 151.385 24.3263C152.655 25.0013 153.667 25.9206 154.419 27.0815C154.864 27.7985 155.184 28.7467 155.383 29.926L155.475 30.5668C155.535 30.9424 155.567 31.3705 155.567 31.8485C155.567 31.9694 155.561 32.1059 155.556 32.2583C155.548 32.4132 155.491 32.5524 155.383 32.6811C155.276 32.8098 155.145 32.8729 154.993 32.8729H141.273C141.042 32.8729 140.927 32.9753 140.927 33.1802C140.927 33.2668 140.943 33.3509 140.974 33.4376L141.249 33.9235C141.417 34.2649 141.658 34.6405 141.973 35.0502C142.287 35.46 142.659 35.8014 143.086 36.0745C144.373 36.8599 145.982 37.2538 147.913 37.2538C149.338 37.2538 150.517 37.0411 151.453 36.613C151.943 36.374 152.365 36.1507 152.716 35.9459L153.245 35.6648C153.337 35.6123 153.428 35.5886 153.52 35.5886C153.735 35.5886 153.903 35.699 154.026 35.9222L154.946 37.7923C154.67 37.9814 154.524 38.0733 154.508 38.0733C154.492 38.0733 154.482 38.0785 154.474 38.0864C154.466 38.0943 154.317 38.1941 154.026 38.3806C152.983 39.0293 151.751 39.5336 150.326 39.8934C149.362 40.1167 148.379 40.227 147.383 40.227C145.518 40.2323 143.875 39.8777 142.457 39.1685ZM152.627 30.2595C152.734 30.207 152.786 30.1492 152.786 30.0809C152.786 29.9627 152.726 29.6712 152.603 29.2089L152.535 29.0041C152.383 28.6285 152.144 28.2792 151.822 27.9535C150.612 26.8267 149.05 26.262 147.135 26.262C143.933 26.262 141.918 27.3126 141.09 29.4138L140.951 29.7474L140.927 29.9522C140.927 30.0389 140.951 30.123 140.995 30.2096C141.042 30.2963 141.139 30.3383 141.294 30.3383H152.234C152.388 30.3357 152.519 30.3121 152.627 30.2595Z" fill="url(#paint13_linear_3522_18673)"/>
</g>
<defs>
<linearGradient id="paint0_linear_3522_18673" x1="162.847" y1="5.80588" x2="162.847" y2="0.216002" gradientUnits="userSpaceOnUse">
<stop stop-color="#00CBEA"/>
<stop offset="0.1383" stop-color="#00BEE7"/>
<stop offset="0.4492" stop-color="#00A8E2"/>
<stop offset="0.7431" stop-color="#009ADF"/>
<stop offset="1" stop-color="#0095DE"/>
</linearGradient>
<linearGradient id="paint1_linear_3522_18673" x1="171.429" y1="14.5314" x2="177.487" y2="14.5314" gradientUnits="userSpaceOnUse">
<stop stop-color="#00CBEA"/>
<stop offset="0.1383" stop-color="#00BEE7"/>
<stop offset="0.4492" stop-color="#00A8E2"/>
<stop offset="0.7431" stop-color="#009ADF"/>
<stop offset="1" stop-color="#0095DE"/>
</linearGradient>
<linearGradient id="paint2_linear_3522_18673" x1="153.747" y1="14.5314" x2="149.439" y2="14.5314" gradientUnits="userSpaceOnUse">
<stop stop-color="#00CBEA"/>
<stop offset="0.1383" stop-color="#00BEE7"/>
<stop offset="0.4492" stop-color="#00A8E2"/>
<stop offset="0.7431" stop-color="#009ADF"/>
<stop offset="1" stop-color="#0095DE"/>
</linearGradient>
<linearGradient id="paint3_linear_3522_18673" x1="162.847" y1="23.072" x2="162.847" y2="27.3934" gradientUnits="userSpaceOnUse">
<stop stop-color="#00CBEA"/>
<stop offset="0.1383" stop-color="#00BEE7"/>
<stop offset="0.4492" stop-color="#00A8E2"/>
<stop offset="0.7431" stop-color="#009ADF"/>
<stop offset="1" stop-color="#0095DE"/>
</linearGradient>
<linearGradient id="paint4_linear_3522_18673" x1="168.716" y1="14.5519" x2="154.771" y2="14.5519" gradientUnits="userSpaceOnUse">
<stop stop-color="#FF7900"/>
<stop offset="0.0797" stop-color="#FF7203"/>
<stop offset="0.4118" stop-color="#FF5C0C"/>
<stop offset="0.7256" stop-color="#FF4E11"/>
<stop offset="1" stop-color="#FF4913"/>
</linearGradient>
<linearGradient id="paint5_linear_3522_18673" x1="10.2772" y1="37.6545" x2="10.2772" y2="15.8941" gradientUnits="userSpaceOnUse">
<stop stop-color="#FF7900"/>
<stop offset="0.0797" stop-color="#FF7203"/>
<stop offset="0.4118" stop-color="#FF5C0C"/>
<stop offset="0.7256" stop-color="#FF4E11"/>
<stop offset="1" stop-color="#FF4913"/>
</linearGradient>
<linearGradient id="paint6_linear_3522_18673" x1="30.7724" y1="37.6552" x2="30.7724" y2="15.8948" gradientUnits="userSpaceOnUse">
<stop stop-color="#FF7900"/>
<stop offset="0.0797" stop-color="#FF7203"/>
<stop offset="0.4118" stop-color="#FF5C0C"/>
<stop offset="0.7256" stop-color="#FF4E11"/>
<stop offset="1" stop-color="#FF4913"/>
</linearGradient>
<linearGradient id="paint7_linear_3522_18673" x1="50.5831" y1="41.0461" x2="50.5831" y2="13.7719" gradientUnits="userSpaceOnUse">
<stop stop-color="#00CBEA"/>
<stop offset="0.1383" stop-color="#00BEE7"/>
<stop offset="0.4492" stop-color="#00A8E2"/>
<stop offset="0.7431" stop-color="#009ADF"/>
<stop offset="1" stop-color="#0095DE"/>
</linearGradient>
<linearGradient id="paint8_linear_3522_18673" x1="61.3165" y1="41.0463" x2="61.3165" y2="13.7721" gradientUnits="userSpaceOnUse">
<stop stop-color="#00CBEA"/>
<stop offset="0.1383" stop-color="#00BEE7"/>
<stop offset="0.4492" stop-color="#00A8E2"/>
<stop offset="0.7431" stop-color="#009ADF"/>
<stop offset="1" stop-color="#0095DE"/>
</linearGradient>
<linearGradient id="paint9_linear_3522_18673" x1="73.1306" y1="41.0459" x2="73.1306" y2="13.7717" gradientUnits="userSpaceOnUse">
<stop stop-color="#00CBEA"/>
<stop offset="0.1383" stop-color="#00BEE7"/>
<stop offset="0.4492" stop-color="#00A8E2"/>
<stop offset="0.7431" stop-color="#009ADF"/>
<stop offset="1" stop-color="#0095DE"/>
</linearGradient>
<linearGradient id="paint10_linear_3522_18673" x1="92.3224" y1="41.0462" x2="92.3224" y2="13.772" gradientUnits="userSpaceOnUse">
<stop stop-color="#00CBEA"/>
<stop offset="0.1383" stop-color="#00BEE7"/>
<stop offset="0.4492" stop-color="#00A8E2"/>
<stop offset="0.7431" stop-color="#009ADF"/>
<stop offset="1" stop-color="#0095DE"/>
</linearGradient>
<linearGradient id="paint11_linear_3522_18673" x1="111.37" y1="41.0459" x2="111.37" y2="13.7717" gradientUnits="userSpaceOnUse">
<stop stop-color="#00CBEA"/>
<stop offset="0.1383" stop-color="#00BEE7"/>
<stop offset="0.4492" stop-color="#00A8E2"/>
<stop offset="0.7431" stop-color="#009ADF"/>
<stop offset="1" stop-color="#0095DE"/>
</linearGradient>
<linearGradient id="paint12_linear_3522_18673" x1="128.848" y1="41.0459" x2="128.848" y2="13.7717" gradientUnits="userSpaceOnUse">
<stop stop-color="#00CBEA"/>
<stop offset="0.1383" stop-color="#00BEE7"/>
<stop offset="0.4492" stop-color="#00A8E2"/>
<stop offset="0.7431" stop-color="#009ADF"/>
<stop offset="1" stop-color="#0095DE"/>
</linearGradient>
<linearGradient id="paint13_linear_3522_18673" x1="146.743" y1="41.0463" x2="146.743" y2="13.7721" gradientUnits="userSpaceOnUse">
<stop stop-color="#00CBEA"/>
<stop offset="0.1383" stop-color="#00BEE7"/>
<stop offset="0.4492" stop-color="#00A8E2"/>
<stop offset="0.7431" stop-color="#009ADF"/>
<stop offset="1" stop-color="#0095DE"/>
</linearGradient>
<clipPath id="clip0_3522_18673">
<rect width="177.488" height="40.3085" fill="white"/>
</clipPath>
</defs>
</svg>
