<svg width="28" height="28" viewBox="0 0 28 28" fill="none" xmlns="http://www.w3.org/2000/svg">
<circle opacity="0.6" cx="14.0701" cy="13.6829" r="13.4492" fill="#0979FD"/>
<circle cx="14.0694" cy="13.6823" r="10.9586" fill="#2391FD"/>
<path d="M16.3662 9.67442C15.6782 9.0072 14.7634 8.6397 13.7904 8.6397C12.8173 8.6397 11.9027 9.0072 11.2146 9.67442C9.94138 10.909 9.78314 13.2319 10.872 14.6393L13.7904 18.7266L16.7045 14.645C17.7977 13.2319 17.6395 10.909 16.3662 9.67442ZM13.8241 13.4292C13.091 13.4292 12.4944 12.8506 12.4944 12.1397C12.4944 11.4289 13.091 10.8502 13.8241 10.8502C14.5571 10.8502 15.1538 11.4289 15.1538 12.1397C15.1538 12.8506 14.5571 13.4292 13.8241 13.4292Z" fill="white"/>
</svg>
