<svg width="40" height="40" viewBox="0 0 40 40" fill="none" xmlns="http://www.w3.org/2000/svg">
<circle cx="20" cy="20" r="20" fill="#0979FD"/>
<g clip-path="url(#clip0_3372_11489)">
<path d="M19.0622 19.9999L23.0222 23.9599L21.891 25.0911L16.7998 19.9999L21.891 14.9087L23.0222 16.0399L19.0622 19.9999Z" fill="white"/>
</g>
<defs>
<clipPath id="clip0_3372_11489">
<rect width="19.2" height="19.2" fill="white" transform="translate(10.3999 10.3999)"/>
</clipPath>
</defs>
</svg>
