<svg width="24" height="35" viewBox="0 0 24 35" fill="none" xmlns="http://www.w3.org/2000/svg">
<rect x="0.777778" y="0.777778" width="21.7778" height="33.4444" rx="10.8889" stroke="#59637E" stroke-width="1.55556"/>
<rect x="10.3704" y="7.77783" width="2.59259" height="6.48148" rx="1.2963" fill="#59637E"/>
</svg>
