<svg width="149" height="152" viewBox="0 0 149 152" fill="none" xmlns="http://www.w3.org/2000/svg">
<g filter="url(#filter0_dd_5193_72900)">
<circle cx="74.5002" cy="70" r="70" fill="#F3F9FF"/>
<path d="M67.3653 38.3519L68.0481 33.4872C68.1678 32.6344 68.8974 32 69.7586 32H105.968C106.785 32 107.491 32.5699 107.652 33.3716C109.264 41.376 111.915 56.8639 111.494 64.4282C111.068 72.0979 108.979 94.7022 107.855 106.447C107.77 107.332 107.026 108 106.137 108H69.8317C68.9394 108 68.1945 107.328 68.1133 106.439C66.93 93.4939 64.8799 69.2203 65.1366 64.4282C65.3493 60.4584 66.2337 50.4947 66.9045 43.2551M67.3653 38.3519H59.5648M67.3653 38.3519C67.236 39.7062 67.0774 41.3903 66.9045 43.2551M59.5648 38.3519H39.2275C38.2736 38.3519 37.5002 39.1252 37.5002 40.0792V106.273C37.5002 107.227 38.2736 108 39.2275 108H57.8375C58.7914 108 59.5648 107.227 59.5648 106.273V43.2551M59.5648 38.3519V43.2551M59.5648 43.2551H66.9045M78.7319 68.4399H98.0105M101.242 74.1232H75.5002M81.0164 53.0616H95.7261C96.68 53.0616 97.4533 52.2883 97.4533 51.3343V44.6481C97.4533 43.6941 96.68 42.9208 95.7261 42.9208H81.0164C80.0624 42.9208 79.2891 43.6941 79.2891 44.6481V51.3343C79.2891 52.2883 80.0624 53.0616 81.0164 53.0616ZM76.2246 62.5337H100.518C101.472 62.5337 102.245 61.7604 102.245 60.8065V40.0792C102.245 39.1252 101.472 38.3519 100.518 38.3519H76.2246C75.2706 38.3519 74.4973 39.1252 74.4973 40.0792V60.8065C74.4973 61.7604 75.2706 62.5337 76.2246 62.5337Z" stroke="url(#paint0_linear_5193_72900)" stroke-width="1.38182" stroke-linecap="round"/>
<path d="M51.0677 69.4707C50.9562 69.3593 50.6219 67.5763 48.6161 67.5763M48.6161 67.5763C48.5398 67.5763 48.4656 67.5776 48.3932 67.5802C46.5604 67.6455 45.6838 68.5581 45.9416 70.3622C46.1644 71.9224 47.9474 72.072 48.6161 72.389M48.6161 67.5763V72.389M48.6161 67.5763V65.6819M45.2729 76.4913C46.1715 77.446 47.438 78.2026 48.6161 78.2761M48.6161 78.2761C49.7755 78.3485 51.0677 78.0514 51.402 76.0455C51.7363 74.0397 49.7304 72.8138 48.6161 72.389M48.6161 78.2761V72.389M48.6161 78.2761V80.503" stroke="url(#paint1_linear_5193_72900)" stroke-width="1.38182" stroke-linecap="round"/>
</g>
<defs>
<filter id="filter0_dd_5193_72900" x="0.500244" y="0" width="148" height="152" filterUnits="userSpaceOnUse" color-interpolation-filters="sRGB">
<feFlood flood-opacity="0" result="BackgroundImageFix"/>
<feColorMatrix in="SourceAlpha" type="matrix" values="0 0 0 0 0 0 0 0 0 0 0 0 0 0 0 0 0 0 127 0" result="hardAlpha"/>
<feMorphology radius="4" operator="erode" in="SourceAlpha" result="effect1_dropShadow_5193_72900"/>
<feOffset dy="8"/>
<feGaussianBlur stdDeviation="4"/>
<feColorMatrix type="matrix" values="0 0 0 0 0.0941176 0 0 0 0 0.152941 0 0 0 0 0.294118 0 0 0 0.08 0"/>
<feBlend mode="normal" in2="BackgroundImageFix" result="effect1_dropShadow_5193_72900"/>
<feColorMatrix in="SourceAlpha" type="matrix" values="0 0 0 0 0 0 0 0 0 0 0 0 0 0 0 0 0 0 127 0" result="hardAlpha"/>
<feMorphology radius="4" operator="erode" in="SourceAlpha" result="effect2_dropShadow_5193_72900"/>
<feOffset dy="4"/>
<feGaussianBlur stdDeviation="3"/>
<feColorMatrix type="matrix" values="0 0 0 0 0.0941176 0 0 0 0 0.152941 0 0 0 0 0.294118 0 0 0 0.12 0"/>
<feBlend mode="normal" in2="effect1_dropShadow_5193_72900" result="effect2_dropShadow_5193_72900"/>
<feBlend mode="normal" in="SourceGraphic" in2="effect2_dropShadow_5193_72900" result="shape"/>
</filter>
<linearGradient id="paint0_linear_5193_72900" x1="128.233" y1="-211.765" x2="-16.8713" y2="-197.336" gradientUnits="userSpaceOnUse">
<stop stop-color="#18D8F6"/>
<stop offset="1" stop-color="#1C45DF"/>
</linearGradient>
<linearGradient id="paint1_linear_5193_72900" x1="52.8294" y1="18.1441" x2="40.6472" y2="18.6614" gradientUnits="userSpaceOnUse">
<stop stop-color="#18D8F6"/>
<stop offset="1" stop-color="#1C45DF"/>
</linearGradient>
</defs>
</svg>
