<svg width="20" height="21" viewBox="0 0 20 21" fill="none" xmlns="http://www.w3.org/2000/svg">
<path d="M10 20.543C4.477 20.543 0 16.066 0 10.543C0 5.01997 4.477 0.542969 10 0.542969C15.523 0.542969 20 5.01997 20 10.543C20 16.066 15.523 20.543 10 20.543ZM10 18.543C12.1217 18.543 14.1566 17.7001 15.6569 16.1998C17.1571 14.6995 18 12.6647 18 10.543C18 8.42124 17.1571 6.38641 15.6569 4.88611C14.1566 3.38582 12.1217 2.54297 10 2.54297C7.87827 2.54297 5.84344 3.38582 4.34315 4.88611C2.84285 6.38641 2 8.42124 2 10.543C2 12.6647 2.84285 14.6995 4.34315 16.1998C5.84344 17.7001 7.87827 18.543 10 18.543ZM9.003 14.543L4.76 10.3L6.174 8.88597L9.003 11.715L14.659 6.05797L16.074 7.47197L9.003 14.543Z" fill="#00CB51"/>
</svg>
