<svg width="65" height="64" viewBox="0 0 65 64" fill="none" xmlns="http://www.w3.org/2000/svg">
<rect x="0.833496" width="64" height="64" rx="12" fill="#DDEFFF"/>
<g clip-path="url(#clip0_5834_73449)">
<path d="M32.8335 13C22.34 13 13.8335 21.5065 13.8335 32C13.8335 42.4935 22.34 51 32.8335 51C43.327 51 51.8335 42.4935 51.8335 32C51.8216 21.5114 43.3221 13.0119 32.8335 13ZM32.8335 14.1875C42.2874 14.1991 50.0896 21.5859 50.6182 31.025C48.6737 31.8878 46.6744 32.6207 44.6331 33.2191C44.4264 32.3705 43.7718 31.7034 42.9272 31.481V29.0312C43.8538 29.0394 44.7705 29.2206 45.6307 29.5656L46.4897 29.992V29.0312C46.4897 21.0591 41.0474 18.9856 37.8033 18.4588C36.5192 18.2594 35.2169 18.2078 33.9213 18.3052C33.5055 16.9568 33.0254 15.5858 32.501 14.1959C32.612 14.1942 32.7219 14.1875 32.8335 14.1875ZM23.4524 37.7001C22.8096 36.8387 22.3878 35.833 22.2243 34.771C25.6897 35.6692 29.2539 36.1287 32.8335 36.1391C33.5995 36.1391 34.3651 36.1177 35.1308 36.0748C34.9244 39.1378 34.3138 42.1599 33.3145 45.0625H30.0375L23.9272 41.1741V38.3335L23.4524 37.7001ZM38.2848 27.8591C37.5513 27.8823 36.8004 27.9049 36.051 27.9185C35.6785 25.0632 35.0827 22.2414 34.2697 19.4791C35.3871 19.4101 36.5082 19.4617 37.6142 19.6333C40.9686 20.1778 44.9384 22.1153 45.2796 28.1745C43.5419 27.6971 40.9749 27.7762 38.2848 27.8591ZM34.8516 27.922C32.2047 27.9043 29.7798 27.6489 28.6767 26.5791C28.2369 26.1457 28.0017 25.5459 28.0302 24.9289H26.8427C26.8403 26.6371 25.6102 28.0963 23.9272 28.3876V24.9289C23.929 23.5585 25.0397 22.4475 26.4104 22.4461H26.8377L26.9731 22.0405C27.2625 21.1736 29.8653 19.9795 33.0634 19.5805C33.8772 22.3098 34.4756 25.0991 34.8522 27.922H34.8516ZM27.5182 27.0595C27.6193 27.1914 27.7301 27.3161 27.8495 27.4318C29.2716 28.8103 31.991 29.1037 34.9971 29.1113C35.196 31.0262 35.2607 32.9524 35.1908 34.8763C30.8078 35.1207 26.4139 34.6667 22.1732 33.5313C22.291 32.9846 22.7742 32.594 23.3335 32.5938H23.9272V29.583C25.467 29.3852 26.8105 28.4413 27.5182 27.0595ZM36.3366 35.9782C38.7342 35.7747 41.1106 35.372 43.4416 34.7739C43.2775 35.8347 42.8565 36.8396 42.2146 37.7001L41.7397 38.3335V41.1741L35.6295 45.0625H34.5744C35.5503 42.1227 36.1426 39.0693 36.3366 35.9782ZM36.3841 34.7789C36.447 32.8854 36.3827 30.9896 36.191 29.1049C36.8973 29.0924 37.6102 29.071 38.3199 29.0489C39.4804 29.0136 40.6549 28.9779 41.7386 28.9898V32.5938H42.3323C42.8916 32.594 43.3749 32.9846 43.4926 33.5313C41.1631 34.1477 38.7855 34.564 36.3853 34.7757L36.3841 34.7789ZM31.2595 14.2611C31.8005 15.673 32.2856 17.0629 32.7146 18.4304C29.5679 18.8526 26.8609 20.0082 26.0387 21.2803C24.1673 21.4731 22.7435 23.0477 22.7397 24.9289V31.481C21.8952 31.7034 21.2406 32.3705 21.0339 33.2191C18.9926 32.6207 16.9933 31.8878 15.0488 31.025C15.5455 22.1892 22.4455 15.0538 31.2595 14.2611ZM15.0288 32.3053C16.9675 33.1472 18.9589 33.863 20.9901 34.4486C21.1162 35.8846 21.6401 37.2574 22.5023 38.4124L22.7397 38.729V41.8259L29.692 46.25H32.8981C32.434 47.4421 31.9052 48.6082 31.314 49.7429C22.2234 48.9538 15.1955 41.4284 15.0288 32.3053ZM32.8335 49.8125C32.757 49.8125 32.6816 49.8079 32.605 49.8067C33.1863 48.6496 33.705 47.4624 34.1593 46.25H35.975L42.9272 41.8259V38.729L43.1647 38.4124C44.0272 37.2574 44.5511 35.8849 44.6778 34.4486C46.7086 33.863 48.7001 33.1472 50.6387 32.3053C50.4633 42.0166 42.5466 49.8009 32.8335 49.8125Z" fill="#0979FD"/>
</g>
<defs>
<clipPath id="clip0_5834_73449">
<rect width="38" height="38" fill="white" transform="translate(13.8335 13)"/>
</clipPath>
</defs>
</svg>
