<svg width="28" height="28" viewBox="0 0 28 28" fill="none" xmlns="http://www.w3.org/2000/svg">
<path d="M22.1667 2.33331H5.83333C5.21449 2.33331 4.621 2.57915 4.18342 3.01673C3.74583 3.45432 3.5 4.04781 3.5 4.66665V21C3.5 21.6188 3.74583 22.2123 4.18342 22.6499C4.621 23.0875 5.21449 23.3333 5.83333 23.3333H10.5L14 26.8333L17.5 23.3333H22.1667C23.45 23.3333 24.5 22.2833 24.5 21V4.66665C24.5 3.38331 23.45 2.33331 22.1667 2.33331ZM22.1667 21H16.5317L15.8433 21.6883L14 23.5316L12.145 21.6766L11.4683 21H5.83333V4.66665H22.1667V21ZM12.8333 17.5H15.1667V19.8333H12.8333V17.5ZM14 8.16665C15.2833 8.16665 16.3333 9.21665 16.3333 10.5C16.3333 12.8333 12.8333 12.5416 12.8333 16.3333H15.1667C15.1667 13.7083 18.6667 13.4166 18.6667 10.5C18.6667 7.92165 16.5783 5.83331 14 5.83331C11.4217 5.83331 9.33333 7.92165 9.33333 10.5H11.6667C11.6667 9.21665 12.7167 8.16665 14 8.16665Z" fill="white"/>
</svg>
