<svg width="26" height="26" viewBox="0 0 26 26" fill="none" xmlns="http://www.w3.org/2000/svg">
<path fill-rule="evenodd" clip-rule="evenodd" d="M12.9835 23.4065C12.9835 23.4065 21.2948 20.8899 21.2948 13.9523C21.2948 7.01352 21.5949 6.47185 20.9287 5.80452C20.2624 5.13719 14.0722 2.97919 12.9835 2.97919C11.8947 2.97919 5.70566 5.13719 5.03941 5.80452C4.37099 6.47185 4.67216 7.01352 4.67216 13.9523C4.67216 20.8899 12.9846 23.4065 12.9846 23.4065H12.9835Z" stroke="white" stroke-width="2.5" stroke-linecap="round" stroke-linejoin="round"/>
<path d="M10.168 12.8646L12.2176 14.9175L16.4405 10.6925" stroke="white" stroke-width="2.5" stroke-linecap="round" stroke-linejoin="round"/>
</svg>
