<svg width="86" height="85" viewBox="0 0 86 85" fill="none" xmlns="http://www.w3.org/2000/svg">
<path d="M41 1.1547C42.2376 0.44017 43.7624 0.44017 45 1.1547L77.8061 20.0953C79.0437 20.8098 79.8061 22.1303 79.8061 23.5594V61.4406C79.8061 62.8697 79.0437 64.1902 77.8061 64.9047L45 83.8453C43.7624 84.5598 42.2376 84.5598 41 83.8453L8.19392 64.9047C6.95632 64.1902 6.19392 62.8697 6.19392 61.4406V23.5594C6.19392 22.1303 6.95632 20.8098 8.19392 20.0953L41 1.1547Z" fill="#EFF3FF"/>
<path d="M42.5962 34.8525V36.1657M42.5962 44.4824V42.9504M44.7136 37.0412C44.7136 36.7493 44.2901 36.1657 42.5962 36.1657M42.5962 36.1657C41.8263 36.0928 40.2864 36.3408 40.2864 37.9166C40.2864 39.8864 44.7136 38.5732 44.7136 41.1995C44.7136 42.5127 43.7512 42.9504 42.5962 42.9504M42.5962 36.1657V42.9504M42.5962 42.9504C41.4413 42.9504 40.0939 42.5127 40.0939 41.6372M27.0047 29.8488H22.5117C22.3354 29.8488 22.1925 29.9917 22.1925 30.168L22.1925 49.485C22.1925 49.6613 22.3354 49.8042 22.5117 49.8042H53.9531M27.0047 29.8488H62.6808C62.8571 29.8488 63 29.9917 63 30.168V49.485C63 49.6613 62.8571 49.8042 62.6808 49.8042H53.9531M27.0047 29.8488V26.9704C27.0047 26.8556 27.0654 26.7453 27.1769 26.7178C28.2117 26.4626 30.7436 27.9662 32.0631 28.8766C32.1503 28.9368 32.2612 28.9508 32.3603 28.9133L32.5136 28.8552C32.6651 28.7978 32.7501 28.6352 32.7049 28.4796C31.7353 25.1456 28.7889 23.4305 27.218 22.911C27.0901 22.8686 26.9986 22.7555 26.9895 22.6211L26.8597 20.7013C26.8411 20.4277 26.5091 20.3032 26.3153 20.4972L22.225 24.5899C22.1006 24.7143 22.1003 24.9159 22.2244 25.0406L27.0047 29.8488ZM53.9531 49.8042V54.7377C53.9531 54.914 53.808 55.0572 53.6317 55.0544C48.7717 54.9776 45.9152 53.1663 44.6747 51.8235C44.4714 51.6034 44.0616 51.7055 44.0552 52.0049C43.947 57.122 50.1988 60.1493 53.7168 61.1217C53.857 61.1605 53.9531 61.2866 53.9531 61.4321V65.2986C53.9531 65.5726 54.2754 65.7193 54.482 65.5394L62.7309 58.3553C62.8745 58.2303 62.8774 58.0083 62.7373 57.8795L53.9531 49.8042ZM37.6765 33.9614H27.1154C26.9455 33.9614 26.8057 34.0956 26.7937 34.2651C26.6271 36.6103 26.0414 36.6596 25.3088 36.6884C25.1426 36.6949 25.0147 36.8317 25.0147 36.998V43.2399C25.0147 43.4162 25.1592 43.5586 25.3354 43.5621C26.9295 43.594 26.8173 43.886 26.8155 44.6302C26.8151 44.7987 26.9548 44.9302 27.1234 44.9302H37.6765C37.6765 44.9302 34.8967 44.7013 34.8967 39.4486C34.8967 34.1959 37.6765 33.9614 37.6765 33.9614ZM30.3647 37.4789C31.3272 37.4789 31.9047 38.5732 31.9047 39.4486C31.9047 40.3241 31.2137 41.1995 30.3647 41.1995C29.4023 41.1995 28.6324 40.3241 28.6324 39.4486C28.6324 38.2073 29.4023 37.4789 30.3647 37.4789ZM59.6271 36.6857C58.9361 36.6552 58.3863 36.5451 58.2146 34.3752C58.1963 34.1444 58.0286 33.9614 57.8248 33.9614H47.3235C47.3235 33.9614 50.1033 34.1959 50.1033 39.4486C50.1033 44.7013 47.3235 44.9302 47.3235 44.9302H57.818C58.02 44.9302 58.1863 44.7521 58.1836 44.5225C58.1758 43.8672 58.1505 43.6002 59.6 43.5636C59.8125 43.5582 59.9853 43.3632 59.9853 43.1214V37.1112C59.9853 36.8816 59.8289 36.6946 59.6271 36.6857ZM54.6353 37.4789C53.6728 37.4789 53.0953 38.5732 53.0953 39.4486C53.0953 40.3241 53.7863 41.1995 54.6353 41.1995C55.5977 41.1995 56.3676 40.3241 56.3676 39.4486C56.3676 38.2073 55.5977 37.4789 54.6353 37.4789Z" stroke="url(#paint0_linear_5937_74176)" stroke-width="1.6" stroke-linecap="round"/>
<defs>
<linearGradient id="paint0_linear_5937_74176" x1="72.2447" y1="-127.542" x2="-8.23745" y2="-120.22" gradientUnits="userSpaceOnUse">
<stop stop-color="#18D8F6"/>
<stop offset="1" stop-color="#1C45DF"/>
</linearGradient>
</defs>
</svg>
