<svg width="22" height="22" viewBox="0 0 22 22" fill="none" xmlns="http://www.w3.org/2000/svg">
<path d="M11 21.75C5.07 21.75 0.25 16.93 0.25 11C0.25 5.07 5.07 0.25 11 0.25C16.93 0.25 21.75 5.07 21.75 11C21.75 16.93 16.93 21.75 11 21.75ZM11 1.75C5.9 1.75 1.75 5.9 1.75 11C1.75 16.1 5.9 20.25 11 20.25C16.1 20.25 20.25 16.1 20.25 11C20.25 5.9 16.1 1.75 11 1.75Z" fill="#FD3549"/>
<path d="M8.16958 14.5804C7.97958 14.5804 7.78958 14.5104 7.63958 14.3604C7.5001 14.2192 7.42188 14.0288 7.42188 13.8304C7.42188 13.6319 7.5001 13.4415 7.63958 13.3004L13.2996 7.64035C13.5896 7.35035 14.0696 7.35035 14.3596 7.64035C14.6496 7.93035 14.6496 8.41035 14.3596 8.70035L8.69958 14.3604C8.55958 14.5104 8.35958 14.5804 8.16958 14.5804Z" fill="#FD3549"/>
<path d="M13.8296 14.5804C13.6396 14.5804 13.4496 14.5104 13.2996 14.3604L7.63958 8.70035C7.5001 8.55921 7.42188 8.36878 7.42188 8.17035C7.42188 7.97192 7.5001 7.78149 7.63958 7.64035C7.92958 7.35035 8.40958 7.35035 8.69958 7.64035L14.3596 13.3004C14.6496 13.5904 14.6496 14.0704 14.3596 14.3604C14.2096 14.5104 14.0196 14.5804 13.8296 14.5804Z" fill="#FD3549"/>
</svg>
