<svg width="132" height="43" viewBox="0 0 132 43" fill="none" xmlns="http://www.w3.org/2000/svg">
<path d="M0.152832 6.03495C0.152832 2.92792 2.67158 0.40918 5.77861 0.40918H126.081C129.188 0.40918 131.706 2.92793 131.706 6.03496V36.8074C131.706 39.9145 129.188 42.4332 126.081 42.4332H5.7786C2.67157 42.4332 0.152832 39.9145 0.152832 36.8074V6.03495Z" fill="white"/>
<path d="M48.9018 13.2751C48.9018 13.9791 48.6991 14.5071 48.294 14.9179C47.8308 15.4165 47.223 15.6512 46.4994 15.6512C45.8047 15.6512 45.1968 15.4165 44.7047 14.9179C44.2127 14.4192 43.9521 13.8032 43.9521 13.0697C43.9521 12.3364 44.2127 11.7204 44.7047 11.2217C45.1968 10.723 45.8047 10.4883 46.4994 10.4883C46.8467 10.4883 47.194 10.5469 47.5124 10.6937C47.8308 10.8403 48.0913 11.0163 48.265 11.251L47.8308 11.691C47.5124 11.3097 47.0493 11.1043 46.4994 11.1043C45.9783 11.1043 45.5441 11.2803 45.1678 11.6617C44.7915 12.0138 44.6179 12.5124 44.6179 13.0991C44.6179 13.6858 44.7915 14.1552 45.1678 14.5365C45.5441 14.8885 45.9783 15.0938 46.4994 15.0938C47.0493 15.0938 47.5124 14.9179 47.8597 14.5365C48.0913 14.3018 48.236 13.9498 48.265 13.5391H46.4994V12.9524H48.8728C48.8728 13.0404 48.9018 13.1577 48.9018 13.2751Z" fill="#123060"/>
<path d="M52.633 11.2195H50.4042V12.7742H52.4014V13.3609H50.4042V14.9157H52.633V15.5317H49.7964V10.6035H52.633V11.2195Z" fill="#123060"/>
<path d="M55.2983 15.5317H54.6614V11.2195H53.301V10.6035H56.6587V11.2195H55.2983V15.5317Z" fill="#123060"/>
<path d="M59.0923 15.5317V10.6035H59.7304V15.5611H59.0923V15.5317Z" fill="#123060"/>
<path d="M62.508 15.5317H61.8711V11.2195H60.5107V10.6035H63.8684V11.2195H62.508V15.5317Z" fill="#123060"/>
<path d="M70.2053 14.9178C69.7133 15.4165 69.1344 15.6806 68.4107 15.6806C67.6872 15.6806 67.1083 15.4165 66.6162 14.9178C66.1241 14.4192 65.8926 13.8032 65.8926 13.0698C65.8926 12.3364 66.1241 11.7203 66.6162 11.2217C67.1083 10.723 67.6872 10.459 68.4107 10.459C69.1344 10.459 69.7133 10.723 70.2053 11.2217C70.6974 11.7203 70.929 12.3364 70.929 13.0404C70.929 13.8032 70.6974 14.4192 70.2053 14.9178ZM67.1083 14.5072C67.4556 14.8885 67.9187 15.0645 68.4397 15.0645C68.9607 15.0645 69.3949 14.8885 69.7712 14.5072C70.1185 14.1259 70.3212 13.6565 70.3212 13.0991C70.3212 12.5417 70.1475 12.043 69.7712 11.691C69.4239 11.3097 68.9607 11.1337 68.4397 11.1337C67.9187 11.1337 67.4846 11.3097 67.1083 11.691C66.7609 12.0724 66.5583 12.5417 66.5583 13.0991C66.5583 13.6565 66.732 14.1259 67.1083 14.5072Z" fill="#123060"/>
<path d="M71.8247 15.5317V10.6035H72.5773L74.9507 14.4463H74.9797L74.9507 13.4783V10.6035H75.5876V15.5611H74.9218L72.4325 11.5129H72.4036L72.4325 12.4809V15.5611H71.8247V15.5317Z" fill="#123060"/>
<path d="M65.7493 22.7805C63.839 22.7805 62.2759 24.2472 62.2759 26.3006C62.2759 28.3247 63.839 29.8208 65.7493 29.8208C67.6597 29.8208 69.2227 28.3247 69.2227 26.3006C69.2227 24.2472 67.6597 22.7805 65.7493 22.7805ZM65.7493 28.4127C64.7073 28.4127 63.81 27.5327 63.81 26.3006C63.81 25.0392 64.7073 24.1886 65.7493 24.1886C66.7914 24.1886 67.6887 25.0392 67.6887 26.3006C67.7176 27.5327 66.8203 28.4127 65.7493 28.4127ZM58.1657 22.7805C56.2554 22.7805 54.6923 24.2472 54.6923 26.3006C54.6923 28.3247 56.2554 29.8208 58.1657 29.8208C60.0761 29.8208 61.6391 28.3247 61.6391 26.3006C61.6681 24.2472 60.1051 22.7805 58.1657 22.7805ZM58.1657 28.4127C57.1237 28.4127 56.2264 27.5327 56.2264 26.3006C56.2264 25.0392 57.1237 24.1886 58.1657 24.1886C59.2078 24.1886 60.1051 25.0392 60.1051 26.3006C60.134 27.5327 59.2367 28.4127 58.1657 28.4127ZM49.1638 23.8365V25.3325H52.6662C52.5504 26.1832 52.2899 26.7699 51.8556 27.21C51.3346 27.738 50.5532 28.2954 49.1349 28.2954C46.964 28.2954 45.2852 26.5353 45.2852 24.3352C45.2852 22.135 46.964 20.375 49.1349 20.375C50.2926 20.375 51.161 20.8444 51.7978 21.431L52.8398 20.375C51.9715 19.5242 50.7847 18.8789 49.1638 18.8789C46.2114 18.8789 43.7222 21.3137 43.7222 24.3352C43.7222 27.3273 46.2114 29.7915 49.1638 29.7915C50.7558 29.7915 51.9715 29.2634 52.9266 28.2661C53.9108 27.2686 54.2002 25.8899 54.2002 24.7752C54.2002 24.4232 54.1713 24.1005 54.1134 23.8365H49.1638ZM86.0398 25.0098C85.7503 24.2179 84.882 22.7805 83.0874 22.7805C81.2928 22.7805 79.8166 24.1886 79.8166 26.3006C79.8166 28.2661 81.2928 29.8208 83.2611 29.8208C84.8531 29.8208 85.7793 28.8234 86.1556 28.2661L84.9688 27.474C84.5636 28.0607 84.0426 28.442 83.2611 28.442C82.4796 28.442 81.9296 28.09 81.5823 27.386L86.2135 25.4499L86.0398 25.0098ZM81.3217 26.1832C81.2928 24.8339 82.3638 24.1298 83.1453 24.1298C83.7532 24.1298 84.2742 24.4232 84.4189 24.8632L81.3217 26.1832ZM77.5589 29.5568H79.093V19.2603H77.5589V29.5568ZM75.0696 23.5431H75.0117C74.6644 23.1325 74.0276 22.7511 73.1882 22.7511C71.4515 22.7511 69.8595 24.3059 69.8595 26.2713C69.8595 28.2367 71.4515 29.7621 73.1882 29.7621C74.0276 29.7621 74.6644 29.3807 75.0117 28.9701H75.0696V29.4688C75.0696 30.8181 74.375 31.5222 73.2171 31.5222C72.2909 31.5222 71.712 30.8475 71.4804 30.2608L70.149 30.8181C70.5253 31.7569 71.5383 32.901 73.2171 32.901C75.0117 32.901 76.5169 31.8449 76.5169 29.2341V22.9858H75.0696V23.5431ZM73.3329 28.4127C72.2909 28.4127 71.3936 27.5327 71.3936 26.3006C71.3936 25.0686 72.262 24.1591 73.3329 24.1591C74.375 24.1591 75.1854 25.0686 75.1854 26.3006C75.1564 27.5033 74.346 28.4127 73.3329 28.4127ZM93.1601 19.2603H89.5132V29.5568H91.0184V25.6553H93.1317C94.81 25.6553 96.4599 24.4232 96.4599 22.4578C96.4599 20.4924 94.8392 19.2603 93.1601 19.2603ZM93.1893 24.2179H91.0184V20.6976H93.1893C94.3185 20.6976 94.9552 21.6364 94.9552 22.4578C94.9835 23.2498 94.3468 24.2179 93.1893 24.2179ZM102.596 22.7511C101.496 22.7511 100.367 23.2498 99.8757 24.3352L101.236 24.8925C101.526 24.3352 102.046 24.1298 102.626 24.1298C103.407 24.1298 104.217 24.5992 104.217 25.4499V25.5672C103.957 25.4206 103.349 25.1566 102.626 25.1566C101.178 25.1566 99.7021 25.978 99.7021 27.474C99.7021 28.8528 100.889 29.7328 102.22 29.7328C103.233 29.7328 103.812 29.2634 104.159 28.7354H104.217V29.5274H105.693V25.5965C105.665 23.7778 104.333 22.7511 102.596 22.7511ZM102.393 28.4127C101.902 28.4127 101.207 28.1487 101.207 27.5327C101.207 26.7406 102.076 26.4179 102.828 26.4179C103.493 26.4179 103.812 26.5646 104.217 26.7699C104.102 27.7087 103.292 28.4127 102.393 28.4127ZM111.019 22.9858L109.283 27.4447H109.225L107.43 22.9858H105.78L108.502 29.2341L106.967 32.6956H108.559L112.727 22.9858H111.019ZM97.3287 29.5568H98.8333V19.2603H97.3287V29.5568Z" fill="#123060"/>
<path d="M18.8004 11.0451C18.5688 11.309 18.4241 11.6904 18.4241 12.1891V30.4352C18.4241 30.934 18.5688 31.3447 18.8004 31.6086L18.8583 31.6674L28.9312 21.4588V21.3122V21.1949L18.8583 10.9863L18.8004 11.0451Z" fill="url(#paint0_linear_3140_10960)"/>
<path d="M32.3202 24.8617L28.9336 21.4295V21.3122V21.1948L32.3202 17.792L32.407 17.8214L36.3725 20.1389C37.5014 20.7842 37.5014 21.8695 36.3725 22.5149L32.3781 24.8031L32.3202 24.8617Z" fill="url(#paint1_linear_3140_10960)"/>
<path d="M32.3763 24.8043L28.9318 21.3135L18.801 31.5806C19.1773 31.9913 19.7852 32.0207 20.4799 31.6392L32.3763 24.8043Z" fill="url(#paint2_linear_3140_10960)"/>
<path d="M32.3755 17.8497L20.4792 10.9853C19.7845 10.5747 19.1766 10.6333 18.8003 11.044L28.9311 21.3112L32.3755 17.8497Z" fill="url(#paint3_linear_3140_10960)"/>
<path opacity="0.2" d="M32.3177 24.7158L20.4792 31.5214C19.8133 31.9028 19.2345 31.8734 18.8582 31.5214L18.8003 31.5801L18.8582 31.6388C19.2345 31.9908 19.8423 32.0201 20.4792 31.6388L32.3755 24.8038L32.3177 24.7158Z" fill="black"/>
<path opacity="0.12" d="M18.8012 31.4917C18.5691 31.2277 18.4241 30.8464 18.4241 30.3184V30.4357C18.4241 30.9344 18.5691 31.345 18.8012 31.609L18.8592 31.5504L18.8012 31.4917Z" fill="black"/>
<path opacity="0.12" d="M36.369 22.3988L32.3167 24.7456L32.4034 24.8336L36.369 22.5162C36.9479 22.1935 37.2083 21.7534 37.2083 21.3135C37.1794 21.7241 36.89 22.1054 36.369 22.3988Z" fill="black"/>
<path opacity="0.25" d="M20.4791 11.1011L36.37 20.2535C36.891 20.5468 37.1805 20.9282 37.2095 21.3095C37.2095 20.8696 36.9199 20.4588 36.37 20.1068L20.4791 10.9837C19.3503 10.3384 18.4241 10.8664 18.4241 12.1865V12.3038C18.4241 11.0131 19.3503 10.4557 20.4791 11.1011Z" fill="#123060"/>
<defs>
<linearGradient id="paint0_linear_3140_10960" x1="28.0494" y1="12.0086" x2="14.2087" y2="25.6655" gradientUnits="userSpaceOnUse">
<stop stop-color="#00A0FF"/>
<stop offset="0.00657445" stop-color="#00A1FF"/>
<stop offset="0.2601" stop-color="#00BEFF"/>
<stop offset="0.5122" stop-color="#00D2FF"/>
<stop offset="0.7604" stop-color="#00DFFF"/>
<stop offset="1" stop-color="#00E3FF"/>
</linearGradient>
<linearGradient id="paint1_linear_3140_10960" x1="37.8461" y1="21.3219" x2="18.1538" y2="21.3219" gradientUnits="userSpaceOnUse">
<stop stop-color="#FFE000"/>
<stop offset="0.4087" stop-color="#FFBD00"/>
<stop offset="0.7754" stop-color="#FFA500"/>
<stop offset="1" stop-color="#FF9C00"/>
</linearGradient>
<linearGradient id="paint2_linear_3140_10960" x1="30.5138" y1="23.2158" x2="11.7446" y2="41.7356" gradientUnits="userSpaceOnUse">
<stop stop-color="#FF3A44"/>
<stop offset="1" stop-color="#C31162"/>
</linearGradient>
<linearGradient id="paint3_linear_3140_10960" x1="16.2468" y1="4.96915" x2="24.628" y2="13.239" gradientUnits="userSpaceOnUse">
<stop stop-color="#32A071"/>
<stop offset="0.0685" stop-color="#2DA771"/>
<stop offset="0.4762" stop-color="#15CF74"/>
<stop offset="0.8009" stop-color="#06E775"/>
<stop offset="1" stop-color="#00F076"/>
</linearGradient>
</defs>
</svg>
