<svg width="86" height="85" viewBox="0 0 86 85" fill="none" xmlns="http://www.w3.org/2000/svg">
<path d="M41 1.1547C42.2376 0.44017 43.7624 0.44017 45 1.1547L77.8061 20.0953C79.0437 20.8098 79.8061 22.1303 79.8061 23.5594V61.4406C79.8061 62.8697 79.0437 64.1902 77.8061 64.9047L45 83.8453C43.7624 84.5598 42.2376 84.5598 41 83.8453L8.19392 64.9047C6.95632 64.1902 6.19392 62.8697 6.19392 61.4406V23.5594C6.19392 22.1303 6.95632 20.8098 8.19392 20.0953L41 1.1547Z" fill="#EFF3FF"/>
<path d="M27 36.7778H33.2222C34.1652 36.7778 35.0696 36.4032 35.7364 35.7364C36.4032 35.0696 36.7778 34.1652 36.7778 33.2222V27" stroke="url(#paint0_linear_5300_73911)" stroke-width="1.6" stroke-linecap="round" stroke-linejoin="round"/>
<path d="M46.5556 59H32.3333C30.9188 59 29.5623 58.4381 28.5621 57.4379C27.5619 56.4377 27 55.0812 27 53.6667V36.7956C26.9999 36.0949 27.1379 35.4012 27.406 34.7539C27.6741 34.1066 28.0672 33.5185 28.5627 33.0231L33.0231 28.5609C34.0234 27.5613 35.3797 26.9998 36.7938 27H50.1111C51.5256 27 52.8822 27.5619 53.8823 28.5621C54.8825 29.5623 55.4444 30.9188 55.4444 32.3333V37.6667" stroke="url(#paint1_linear_5300_73911)" stroke-width="1.6" stroke-linecap="round" stroke-linejoin="round"/>
<path d="M43 48.333H46.5556" stroke="url(#paint2_linear_5300_73911)" stroke-width="1.6" stroke-linecap="round" stroke-linejoin="round"/>
<path d="M44.7778 53.667H46.5556" stroke="url(#paint3_linear_5300_73911)" stroke-width="1.6" stroke-linecap="round" stroke-linejoin="round"/>
<path d="M55.4443 43V44.4364" stroke="url(#paint4_linear_5300_73911)" stroke-width="1.6" stroke-linecap="round" stroke-linejoin="round"/>
<path d="M51.8889 47.3094C51.9887 46.4609 52.4166 45.6852 53.0812 45.1483C53.7457 44.6113 54.594 44.3558 55.4445 44.4365" stroke="url(#paint5_linear_5300_73911)" stroke-width="1.6" stroke-linecap="round" stroke-linejoin="round"/>
<path d="M55.4443 57.2226V55.7861" stroke="url(#paint6_linear_5300_73911)" stroke-width="1.6" stroke-linecap="round" stroke-linejoin="round"/>
<path d="M58.9999 52.9131C58.9001 53.7616 58.4722 54.5373 57.8077 55.0742C57.1431 55.6111 56.2948 55.8666 55.4443 55.786" stroke="url(#paint7_linear_5300_73911)" stroke-width="1.6" stroke-linecap="round" stroke-linejoin="round"/>
<path d="M58.911 46.681C58.6505 45.9844 58.1728 45.39 57.5486 44.9857C56.9243 44.5814 56.1866 44.3886 55.4443 44.4357" stroke="url(#paint8_linear_5300_73911)" stroke-width="1.6" stroke-linecap="round" stroke-linejoin="round"/>
<path d="M51.9775 53.54C52.2381 54.2367 52.7157 54.831 53.34 55.2353C53.9642 55.6397 54.702 55.8325 55.4442 55.7854" stroke="url(#paint9_linear_5300_73911)" stroke-width="1.6" stroke-linecap="round" stroke-linejoin="round"/>
<path d="M51.8889 47.3086C51.889 47.8984 52.0935 48.47 52.4675 48.926C52.8416 49.3821 53.3621 49.6944 53.9405 49.8099L56.9485 50.4108C57.5269 50.5263 58.0474 50.8387 58.4214 51.2947C58.7955 51.7508 58.9999 52.3223 59 52.9121" stroke="url(#paint10_linear_5300_73911)" stroke-width="1.6" stroke-linecap="round" stroke-linejoin="round"/>
<defs>
<linearGradient id="paint0_linear_5300_73911" x1="38.9825" y1="-4.36163" x2="19.8296" y2="-2.40653" gradientUnits="userSpaceOnUse">
<stop stop-color="#18D8F6"/>
<stop offset="1" stop-color="#1C45DF"/>
</linearGradient>
<linearGradient id="paint1_linear_5300_73911" x1="61.8581" y1="-75.638" x2="6.01978" y2="-70.5715" gradientUnits="userSpaceOnUse">
<stop stop-color="#18D8F6"/>
<stop offset="1" stop-color="#1C45DF"/>
</linearGradient>
<linearGradient id="paint2_linear_5300_73911" x1="47.3573" y1="45.1256" x2="41.1391" y2="47.3824" gradientUnits="userSpaceOnUse">
<stop stop-color="#18D8F6"/>
<stop offset="1" stop-color="#1C45DF"/>
</linearGradient>
<linearGradient id="paint3_linear_5300_73911" x1="46.9565" y1="50.4596" x2="43.55" y2="51.0777" gradientUnits="userSpaceOnUse">
<stop stop-color="#18D8F6"/>
<stop offset="1" stop-color="#1C45DF"/>
</linearGradient>
<linearGradient id="paint4_linear_5300_73911" x1="56.6698" y1="38.3927" x2="54.7005" y2="38.5326" gradientUnits="userSpaceOnUse">
<stop stop-color="#18D8F6"/>
<stop offset="1" stop-color="#1C45DF"/>
</linearGradient>
<linearGradient id="paint5_linear_5300_73911" x1="56.2462" y1="35.1604" x2="49.3184" y2="36.0312" gradientUnits="userSpaceOnUse">
<stop stop-color="#18D8F6"/>
<stop offset="1" stop-color="#1C45DF"/>
</linearGradient>
<linearGradient id="paint6_linear_5300_73911" x1="56.6698" y1="51.1788" x2="54.7005" y2="51.3188" gradientUnits="userSpaceOnUse">
<stop stop-color="#18D8F6"/>
<stop offset="1" stop-color="#1C45DF"/>
</linearGradient>
<linearGradient id="paint7_linear_5300_73911" x1="59.8016" y1="43.6516" x2="52.8738" y2="44.5224" gradientUnits="userSpaceOnUse">
<stop stop-color="#18D8F6"/>
<stop offset="1" stop-color="#1C45DF"/>
</linearGradient>
<linearGradient id="paint8_linear_5300_73911" x1="59.6927" y1="37.2046" x2="52.9966" y2="38.2566" gradientUnits="userSpaceOnUse">
<stop stop-color="#18D8F6"/>
<stop offset="1" stop-color="#1C45DF"/>
</linearGradient>
<linearGradient id="paint9_linear_5300_73911" x1="56.2259" y1="46.3159" x2="49.5298" y2="47.368" gradientUnits="userSpaceOnUse">
<stop stop-color="#18D8F6"/>
<stop offset="1" stop-color="#1C45DF"/>
</linearGradient>
<linearGradient id="paint10_linear_5300_73911" x1="60.6034" y1="29.3355" x2="46.7612" y2="31.1287" gradientUnits="userSpaceOnUse">
<stop stop-color="#18D8F6"/>
<stop offset="1" stop-color="#1C45DF"/>
</linearGradient>
</defs>
</svg>
