<svg width="68" height="68" viewBox="0 0 68 68" fill="none" xmlns="http://www.w3.org/2000/svg">
<path d="M26.8334 49.0001V50.0001L27.6334 49.4001L47.6334 34.4001L48.1667 34.0001L47.6334 33.6001L27.6334 18.6001L26.8334 18.0001V19.0001V49.0001ZM1.16675 34.0001C1.16675 15.8762 15.8762 1.16675 34.0001 1.16675C52.1239 1.16675 66.8334 15.8762 66.8334 34.0001C66.8334 52.1239 52.1239 66.8334 34.0001 66.8334C15.8762 66.8334 1.16675 52.1239 1.16675 34.0001Z" fill="#F2F2F2" stroke="#F9F9F9"/>
</svg>
